G75*
G70*
%OFA0B0*%
%FSLAX24Y24*%
%IPPOS*%
%LPD*%
%AMOC8*
5,1,8,0,0,1.08239X$1,22.5*
%
%ADD10C,0.0000*%
%ADD11R,0.0800X0.0800*%
%ADD12C,0.0800*%
%ADD13R,0.0740X0.0740*%
%ADD14C,0.0740*%
%ADD15C,0.0760*%
D10*
X000100Y000100D02*
X000100Y006096D01*
X015470Y006096D01*
X015470Y000100D01*
X000100Y000100D01*
X000950Y004600D02*
X000952Y004650D01*
X000958Y004700D01*
X000968Y004750D01*
X000981Y004798D01*
X000998Y004846D01*
X001019Y004892D01*
X001043Y004936D01*
X001071Y004978D01*
X001102Y005018D01*
X001136Y005055D01*
X001173Y005090D01*
X001212Y005121D01*
X001253Y005150D01*
X001297Y005175D01*
X001343Y005197D01*
X001390Y005215D01*
X001438Y005229D01*
X001487Y005240D01*
X001537Y005247D01*
X001587Y005250D01*
X001638Y005249D01*
X001688Y005244D01*
X001738Y005235D01*
X001786Y005223D01*
X001834Y005206D01*
X001880Y005186D01*
X001925Y005163D01*
X001968Y005136D01*
X002008Y005106D01*
X002046Y005073D01*
X002081Y005037D01*
X002114Y004998D01*
X002143Y004957D01*
X002169Y004914D01*
X002192Y004869D01*
X002211Y004822D01*
X002226Y004774D01*
X002238Y004725D01*
X002246Y004675D01*
X002250Y004625D01*
X002250Y004575D01*
X002246Y004525D01*
X002238Y004475D01*
X002226Y004426D01*
X002211Y004378D01*
X002192Y004331D01*
X002169Y004286D01*
X002143Y004243D01*
X002114Y004202D01*
X002081Y004163D01*
X002046Y004127D01*
X002008Y004094D01*
X001968Y004064D01*
X001925Y004037D01*
X001880Y004014D01*
X001834Y003994D01*
X001786Y003977D01*
X001738Y003965D01*
X001688Y003956D01*
X001638Y003951D01*
X001587Y003950D01*
X001537Y003953D01*
X001487Y003960D01*
X001438Y003971D01*
X001390Y003985D01*
X001343Y004003D01*
X001297Y004025D01*
X001253Y004050D01*
X001212Y004079D01*
X001173Y004110D01*
X001136Y004145D01*
X001102Y004182D01*
X001071Y004222D01*
X001043Y004264D01*
X001019Y004308D01*
X000998Y004354D01*
X000981Y004402D01*
X000968Y004450D01*
X000958Y004500D01*
X000952Y004550D01*
X000950Y004600D01*
X013250Y001600D02*
X013252Y001650D01*
X013258Y001700D01*
X013268Y001750D01*
X013281Y001798D01*
X013298Y001846D01*
X013319Y001892D01*
X013343Y001936D01*
X013371Y001978D01*
X013402Y002018D01*
X013436Y002055D01*
X013473Y002090D01*
X013512Y002121D01*
X013553Y002150D01*
X013597Y002175D01*
X013643Y002197D01*
X013690Y002215D01*
X013738Y002229D01*
X013787Y002240D01*
X013837Y002247D01*
X013887Y002250D01*
X013938Y002249D01*
X013988Y002244D01*
X014038Y002235D01*
X014086Y002223D01*
X014134Y002206D01*
X014180Y002186D01*
X014225Y002163D01*
X014268Y002136D01*
X014308Y002106D01*
X014346Y002073D01*
X014381Y002037D01*
X014414Y001998D01*
X014443Y001957D01*
X014469Y001914D01*
X014492Y001869D01*
X014511Y001822D01*
X014526Y001774D01*
X014538Y001725D01*
X014546Y001675D01*
X014550Y001625D01*
X014550Y001575D01*
X014546Y001525D01*
X014538Y001475D01*
X014526Y001426D01*
X014511Y001378D01*
X014492Y001331D01*
X014469Y001286D01*
X014443Y001243D01*
X014414Y001202D01*
X014381Y001163D01*
X014346Y001127D01*
X014308Y001094D01*
X014268Y001064D01*
X014225Y001037D01*
X014180Y001014D01*
X014134Y000994D01*
X014086Y000977D01*
X014038Y000965D01*
X013988Y000956D01*
X013938Y000951D01*
X013887Y000950D01*
X013837Y000953D01*
X013787Y000960D01*
X013738Y000971D01*
X013690Y000985D01*
X013643Y001003D01*
X013597Y001025D01*
X013553Y001050D01*
X013512Y001079D01*
X013473Y001110D01*
X013436Y001145D01*
X013402Y001182D01*
X013371Y001222D01*
X013343Y001264D01*
X013319Y001308D01*
X013298Y001354D01*
X013281Y001402D01*
X013268Y001450D01*
X013258Y001500D01*
X013252Y001550D01*
X013250Y001600D01*
D11*
X009000Y001850D03*
X004600Y001850D03*
D12*
X006569Y001850D03*
X010969Y001850D03*
D13*
X006300Y004950D03*
D14*
X007300Y004950D03*
X008300Y004950D03*
X009300Y004950D03*
D15*
X010969Y003281D01*
X010969Y001850D01*
X009000Y001850D02*
X009000Y002700D01*
X008350Y003350D01*
X008350Y004900D01*
X008300Y004950D01*
X007350Y004900D02*
X007300Y004950D01*
X007350Y004900D02*
X007350Y003350D01*
X006569Y002569D01*
X006569Y001850D01*
X004600Y001850D02*
X004600Y003250D01*
X006300Y004950D01*
M02*
