<?xml version="1.0" encoding="utf-8"?>
<!DOCTYPE eagle SYSTEM "eagle.dtd">
<eagle version="6.2">
<drawing>
<settings>
<setting alwaysvectorfont="no"/>
<setting verticaltext="up"/>
</settings>
<grid distance="0.1" unitdist="inch" unit="inch" style="lines" multiple="1" display="no" altdistance="0.01" altunitdist="inch" altunit="inch"/>
<layers>
<layer number="1" name="Top" color="4" fill="1" visible="no" active="no"/>
<layer number="16" name="Bottom" color="1" fill="1" visible="no" active="no"/>
<layer number="17" name="Pads" color="2" fill="1" visible="no" active="no"/>
<layer number="18" name="Vias" color="2" fill="1" visible="no" active="no"/>
<layer number="19" name="Unrouted" color="6" fill="1" visible="no" active="no"/>
<layer number="20" name="Dimension" color="15" fill="1" visible="no" active="no"/>
<layer number="21" name="tPlace" color="7" fill="1" visible="no" active="no"/>
<layer number="22" name="bPlace" color="7" fill="1" visible="no" active="no"/>
<layer number="23" name="tOrigins" color="15" fill="1" visible="no" active="no"/>
<layer number="24" name="bOrigins" color="15" fill="1" visible="no" active="no"/>
<layer number="25" name="tNames" color="7" fill="1" visible="no" active="no"/>
<layer number="26" name="bNames" color="7" fill="1" visible="no" active="no"/>
<layer number="27" name="tValues" color="7" fill="1" visible="no" active="no"/>
<layer number="28" name="bValues" color="7" fill="1" visible="no" active="no"/>
<layer number="29" name="tStop" color="7" fill="3" visible="no" active="no"/>
<layer number="30" name="bStop" color="7" fill="6" visible="no" active="no"/>
<layer number="31" name="tCream" color="7" fill="4" visible="no" active="no"/>
<layer number="32" name="bCream" color="7" fill="5" visible="no" active="no"/>
<layer number="33" name="tFinish" color="6" fill="3" visible="no" active="no"/>
<layer number="34" name="bFinish" color="6" fill="6" visible="no" active="no"/>
<layer number="35" name="tGlue" color="7" fill="4" visible="no" active="no"/>
<layer number="36" name="bGlue" color="7" fill="5" visible="no" active="no"/>
<layer number="37" name="tTest" color="7" fill="1" visible="no" active="no"/>
<layer number="38" name="bTest" color="7" fill="1" visible="no" active="no"/>
<layer number="39" name="tKeepout" color="4" fill="11" visible="no" active="no"/>
<layer number="40" name="bKeepout" color="1" fill="11" visible="no" active="no"/>
<layer number="41" name="tRestrict" color="4" fill="10" visible="no" active="no"/>
<layer number="42" name="bRestrict" color="1" fill="10" visible="no" active="no"/>
<layer number="43" name="vRestrict" color="2" fill="10" visible="no" active="no"/>
<layer number="44" name="Drills" color="7" fill="1" visible="no" active="no"/>
<layer number="45" name="Holes" color="7" fill="1" visible="no" active="no"/>
<layer number="46" name="Milling" color="3" fill="1" visible="no" active="no"/>
<layer number="47" name="Measures" color="7" fill="1" visible="no" active="no"/>
<layer number="48" name="Document" color="7" fill="1" visible="no" active="no"/>
<layer number="49" name="Reference" color="7" fill="1" visible="no" active="no"/>
<layer number="50" name="dxf" color="7" fill="1" visible="no" active="no"/>
<layer number="51" name="tDocu" color="7" fill="1" visible="no" active="no"/>
<layer number="52" name="bDocu" color="7" fill="1" visible="no" active="no"/>
<layer number="53" name="tGND_GNDA" color="7" fill="9" visible="no" active="no"/>
<layer number="54" name="bGND_GNDA" color="1" fill="9" visible="no" active="no"/>
<layer number="56" name="wert" color="7" fill="1" visible="no" active="no"/>
<layer number="91" name="Nets" color="2" fill="1" visible="yes" active="yes"/>
<layer number="92" name="Busses" color="1" fill="1" visible="yes" active="yes"/>
<layer number="93" name="Pins" color="2" fill="1" visible="no" active="yes"/>
<layer number="94" name="Symbols" color="4" fill="1" visible="yes" active="yes"/>
<layer number="95" name="Names" color="7" fill="1" visible="yes" active="yes"/>
<layer number="96" name="Values" color="7" fill="1" visible="yes" active="yes"/>
<layer number="97" name="Info" color="7" fill="1" visible="yes" active="yes"/>
<layer number="98" name="Guide" color="6" fill="1" visible="yes" active="yes"/>
<layer number="100" name="Muster" color="7" fill="1" visible="no" active="no"/>
<layer number="101" name="Patch_Top" color="12" fill="4" visible="no" active="yes"/>
<layer number="102" name="Vscore" color="7" fill="1" visible="no" active="yes"/>
<layer number="103" name="tMap" color="7" fill="1" visible="no" active="yes"/>
<layer number="104" name="Name" color="16" fill="1" visible="no" active="yes"/>
<layer number="105" name="tPlate" color="7" fill="1" visible="no" active="yes"/>
<layer number="106" name="bPlate" color="7" fill="1" visible="no" active="yes"/>
<layer number="107" name="Crop" color="7" fill="1" visible="no" active="yes"/>
<layer number="116" name="Patch_BOT" color="9" fill="4" visible="no" active="yes"/>
<layer number="121" name="_tsilk" color="7" fill="1" visible="no" active="yes"/>
<layer number="122" name="_bsilk" color="7" fill="1" visible="no" active="yes"/>
<layer number="125" name="_tNames" color="7" fill="1" visible="no" active="yes"/>
<layer number="144" name="Drill_legend" color="7" fill="1" visible="no" active="yes"/>
<layer number="151" name="HeatSink" color="7" fill="1" visible="no" active="yes"/>
<layer number="200" name="200bmp" color="1" fill="10" visible="no" active="yes"/>
<layer number="201" name="201bmp" color="2" fill="10" visible="no" active="yes"/>
<layer number="202" name="202bmp" color="3" fill="10" visible="no" active="yes"/>
<layer number="203" name="203bmp" color="4" fill="10" visible="no" active="yes"/>
<layer number="204" name="204bmp" color="5" fill="10" visible="no" active="yes"/>
<layer number="205" name="205bmp" color="6" fill="10" visible="no" active="yes"/>
<layer number="206" name="206bmp" color="7" fill="10" visible="no" active="yes"/>
<layer number="207" name="207bmp" color="8" fill="10" visible="no" active="yes"/>
<layer number="208" name="208bmp" color="9" fill="10" visible="no" active="yes"/>
<layer number="209" name="209bmp" color="7" fill="1" visible="no" active="yes"/>
<layer number="210" name="210bmp" color="7" fill="1" visible="no" active="yes"/>
<layer number="211" name="211bmp" color="7" fill="1" visible="no" active="yes"/>
<layer number="212" name="212bmp" color="7" fill="1" visible="no" active="yes"/>
<layer number="213" name="213bmp" color="7" fill="1" visible="no" active="yes"/>
<layer number="214" name="214bmp" color="7" fill="1" visible="no" active="yes"/>
<layer number="215" name="215bmp" color="7" fill="1" visible="no" active="yes"/>
<layer number="216" name="216bmp" color="7" fill="1" visible="no" active="yes"/>
<layer number="217" name="217bmp" color="18" fill="1" visible="no" active="no"/>
<layer number="218" name="218bmp" color="19" fill="1" visible="no" active="no"/>
<layer number="219" name="219bmp" color="20" fill="1" visible="no" active="no"/>
<layer number="220" name="220bmp" color="21" fill="1" visible="no" active="no"/>
<layer number="221" name="221bmp" color="22" fill="1" visible="no" active="no"/>
<layer number="222" name="222bmp" color="23" fill="1" visible="no" active="no"/>
<layer number="223" name="223bmp" color="24" fill="1" visible="no" active="no"/>
<layer number="224" name="224bmp" color="25" fill="1" visible="no" active="no"/>
<layer number="250" name="Descript" color="3" fill="1" visible="no" active="no"/>
<layer number="251" name="SMDround" color="12" fill="11" visible="no" active="no"/>
<layer number="254" name="cooling" color="7" fill="1" visible="no" active="yes"/>
</layers>
<schematic xreflabel="%F%N/%S.%C%R" xrefpart="/%S.%C%R">
<libraries>
<library name="frames">
<description>&lt;b&gt;Frames for Sheet and Layout&lt;/b&gt;</description>
<packages>
</packages>
<symbols>
<symbol name="LETTER_L">
<frame x1="0" y1="0" x2="248.92" y2="185.42" columns="12" rows="17" layer="94" border-left="no" border-top="no" border-right="no" border-bottom="no"/>
</symbol>
<symbol name="DOCFIELD">
<wire x1="0" y1="0" x2="71.12" y2="0" width="0.1016" layer="94"/>
<wire x1="101.6" y1="15.24" x2="87.63" y2="15.24" width="0.1016" layer="94"/>
<wire x1="0" y1="0" x2="0" y2="5.08" width="0.1016" layer="94"/>
<wire x1="0" y1="5.08" x2="71.12" y2="5.08" width="0.1016" layer="94"/>
<wire x1="0" y1="5.08" x2="0" y2="15.24" width="0.1016" layer="94"/>
<wire x1="101.6" y1="15.24" x2="101.6" y2="5.08" width="0.1016" layer="94"/>
<wire x1="71.12" y1="5.08" x2="71.12" y2="0" width="0.1016" layer="94"/>
<wire x1="71.12" y1="5.08" x2="87.63" y2="5.08" width="0.1016" layer="94"/>
<wire x1="71.12" y1="0" x2="101.6" y2="0" width="0.1016" layer="94"/>
<wire x1="87.63" y1="15.24" x2="87.63" y2="5.08" width="0.1016" layer="94"/>
<wire x1="87.63" y1="15.24" x2="0" y2="15.24" width="0.1016" layer="94"/>
<wire x1="87.63" y1="5.08" x2="101.6" y2="5.08" width="0.1016" layer="94"/>
<wire x1="101.6" y1="5.08" x2="101.6" y2="0" width="0.1016" layer="94"/>
<wire x1="0" y1="15.24" x2="0" y2="22.86" width="0.1016" layer="94"/>
<wire x1="101.6" y1="35.56" x2="0" y2="35.56" width="0.1016" layer="94"/>
<wire x1="101.6" y1="35.56" x2="101.6" y2="22.86" width="0.1016" layer="94"/>
<wire x1="0" y1="22.86" x2="101.6" y2="22.86" width="0.1016" layer="94"/>
<wire x1="0" y1="22.86" x2="0" y2="35.56" width="0.1016" layer="94"/>
<wire x1="101.6" y1="22.86" x2="101.6" y2="15.24" width="0.1016" layer="94"/>
<text x="1.27" y="1.27" size="2.54" layer="94" font="vector">Date:</text>
<text x="12.7" y="1.27" size="2.54" layer="94" font="vector">&gt;LAST_DATE_TIME</text>
<text x="72.39" y="1.27" size="2.54" layer="94" font="vector">Sheet:</text>
<text x="86.36" y="1.27" size="2.54" layer="94" font="vector">&gt;SHEET</text>
<text x="88.9" y="11.43" size="2.54" layer="94" font="vector">REV:</text>
<text x="1.27" y="19.05" size="2.54" layer="94" font="vector">TITLE:</text>
<text x="1.27" y="11.43" size="2.54" layer="94" font="vector">Document Number:</text>
<text x="17.78" y="19.05" size="2.54" layer="94" font="vector">&gt;DRAWING_NAME</text>
</symbol>
</symbols>
<devicesets>
<deviceset name="LETTER_L" prefix="FRAME" uservalue="yes">
<description>&lt;b&gt;FRAME&lt;/b&gt;&lt;p&gt;
LETTER landscape</description>
<gates>
<gate name="G$1" symbol="LETTER_L" x="0" y="0"/>
<gate name="G$2" symbol="DOCFIELD" x="147.32" y="0" addlevel="must"/>
</gates>
<devices>
<device name="">
<technologies>
<technology name=""/>
</technologies>
</device>
</devices>
</deviceset>
</devicesets>
</library>
<library name="SparkFun">
<description>&lt;h3&gt;SparkFun Electronics' preferred foot prints&lt;/h3&gt;
We've spent an enormous amount of time creating and checking these footprints and parts. If you enjoy using this library, please buy one of our products at www.sparkfun.com.
&lt;br&gt;&lt;br&gt;
&lt;b&gt;Licensing:&lt;/b&gt; CC v3.0 Share-Alike You are welcome to use this library for commercial purposes. For attribution, we ask that when you begin to sell your device using our footprint, you email us with a link to the product being sold. We want bragging rights that we helped (in a very small part) to create your 8th world wonder. We would like the opportunity to feature your device on our homepage.</description>
<packages>
<package name="STAND-OFF">
<description>&lt;b&gt;Stand Off&lt;/b&gt;&lt;p&gt;
This is the mechanical footprint for a #4 phillips button head screw. Use the keepout ring to avoid running the screw head into surrounding components. SKU : PRT-00447</description>
<wire x1="0" y1="1.8542" x2="0" y2="-1.8542" width="0.2032" layer="41" curve="-180"/>
<wire x1="0" y1="-1.8542" x2="0" y2="1.8542" width="0.2032" layer="41" curve="-180"/>
<wire x1="0" y1="-1.8542" x2="0" y2="1.8542" width="0.2032" layer="42" curve="180"/>
<wire x1="0" y1="-1.8542" x2="0" y2="1.8542" width="0.2032" layer="42" curve="-180"/>
<circle x="0" y="0" radius="2.794" width="0.127" layer="39"/>
<hole x="0" y="0" drill="3.302"/>
</package>
<package name="STAND-OFF-TIGHT">
<description>&lt;b&gt;Stand Off&lt;/b&gt;&lt;p&gt;
This is the mechanical footprint for a #4 phillips button head screw. Use the keepout ring to avoid running the screw head into surrounding components. SKU : PRT-00447</description>
<wire x1="0" y1="1.8542" x2="0" y2="-1.8542" width="0.2032" layer="41" curve="-180"/>
<wire x1="0" y1="-1.8542" x2="0" y2="1.8542" width="0.2032" layer="41" curve="-180"/>
<wire x1="0" y1="-1.8542" x2="0" y2="1.8542" width="0.2032" layer="42" curve="180"/>
<wire x1="0" y1="-1.8542" x2="0" y2="1.8542" width="0.2032" layer="42" curve="-180"/>
<circle x="0" y="0" radius="2.794" width="0.127" layer="39"/>
<hole x="0" y="0" drill="3.048"/>
</package>
<package name="SCREWTERMINAL-5MM-2">
<wire x1="-3.1" y1="4.2" x2="8.1" y2="4.2" width="0.2032" layer="21"/>
<wire x1="8.1" y1="4.2" x2="8.1" y2="-2.3" width="0.2032" layer="21"/>
<wire x1="8.1" y1="-2.3" x2="8.1" y2="-3.3" width="0.2032" layer="21"/>
<wire x1="8.1" y1="-3.3" x2="-3.1" y2="-3.3" width="0.2032" layer="21"/>
<wire x1="-3.1" y1="-3.3" x2="-3.1" y2="-2.3" width="0.2032" layer="21"/>
<wire x1="-3.1" y1="-2.3" x2="-3.1" y2="4.2" width="0.2032" layer="21"/>
<wire x1="8.1" y1="-2.3" x2="-3.1" y2="-2.3" width="0.2032" layer="21"/>
<wire x1="-3.1" y1="-1.35" x2="-3.7" y2="-1.35" width="0.2032" layer="51"/>
<wire x1="-3.7" y1="-1.35" x2="-3.7" y2="-2.35" width="0.2032" layer="51"/>
<wire x1="-3.7" y1="-2.35" x2="-3.1" y2="-2.35" width="0.2032" layer="51"/>
<wire x1="8.1" y1="4" x2="8.7" y2="4" width="0.2032" layer="51"/>
<wire x1="8.7" y1="4" x2="8.7" y2="3" width="0.2032" layer="51"/>
<wire x1="8.7" y1="3" x2="8.1" y2="3" width="0.2032" layer="51"/>
<circle x="2.5" y="3.7" radius="0.2828" width="0.127" layer="51"/>
<pad name="1" x="0" y="0" drill="1.3" diameter="2.032" shape="square"/>
<pad name="2" x="5" y="0" drill="1.3" diameter="2.032"/>
<text x="-1.27" y="2.54" size="0.4064" layer="25">&gt;NAME</text>
<text x="-1.27" y="1.27" size="0.4064" layer="27">&gt;VALUE</text>
</package>
<package name="1X02">
<wire x1="-0.635" y1="1.27" x2="0.635" y2="1.27" width="0.2032" layer="21"/>
<wire x1="0.635" y1="1.27" x2="1.27" y2="0.635" width="0.2032" layer="21"/>
<wire x1="1.27" y1="-0.635" x2="0.635" y2="-1.27" width="0.2032" layer="21"/>
<wire x1="1.27" y1="0.635" x2="1.905" y2="1.27" width="0.2032" layer="21"/>
<wire x1="1.905" y1="1.27" x2="3.175" y2="1.27" width="0.2032" layer="21"/>
<wire x1="3.175" y1="1.27" x2="3.81" y2="0.635" width="0.2032" layer="21"/>
<wire x1="3.81" y1="-0.635" x2="3.175" y2="-1.27" width="0.2032" layer="21"/>
<wire x1="3.175" y1="-1.27" x2="1.905" y2="-1.27" width="0.2032" layer="21"/>
<wire x1="1.905" y1="-1.27" x2="1.27" y2="-0.635" width="0.2032" layer="21"/>
<wire x1="-1.27" y1="0.635" x2="-1.27" y2="-0.635" width="0.2032" layer="21"/>
<wire x1="-0.635" y1="1.27" x2="-1.27" y2="0.635" width="0.2032" layer="21"/>
<wire x1="-1.27" y1="-0.635" x2="-0.635" y2="-1.27" width="0.2032" layer="21"/>
<wire x1="0.635" y1="-1.27" x2="-0.635" y2="-1.27" width="0.2032" layer="21"/>
<wire x1="3.81" y1="0.635" x2="3.81" y2="-0.635" width="0.2032" layer="21"/>
<pad name="1" x="0" y="0" drill="1.016" diameter="1.8796" rot="R90"/>
<pad name="2" x="2.54" y="0" drill="1.016" diameter="1.8796" rot="R90"/>
<text x="-1.3462" y="1.8288" size="1.27" layer="25" ratio="10">&gt;NAME</text>
<text x="-1.27" y="-3.175" size="1.27" layer="27">&gt;VALUE</text>
<rectangle x1="2.286" y1="-0.254" x2="2.794" y2="0.254" layer="51"/>
<rectangle x1="-0.254" y1="-0.254" x2="0.254" y2="0.254" layer="51"/>
</package>
<package name="MOLEX-1X2">
<wire x1="-1.27" y1="3.048" x2="-1.27" y2="-2.54" width="0.127" layer="21"/>
<wire x1="3.81" y1="3.048" x2="3.81" y2="-2.54" width="0.127" layer="21"/>
<wire x1="3.81" y1="3.048" x2="-1.27" y2="3.048" width="0.127" layer="21"/>
<wire x1="3.81" y1="-2.54" x2="2.54" y2="-2.54" width="0.127" layer="21"/>
<wire x1="2.54" y1="-2.54" x2="0" y2="-2.54" width="0.127" layer="21"/>
<wire x1="0" y1="-2.54" x2="-1.27" y2="-2.54" width="0.127" layer="21"/>
<wire x1="0" y1="-2.54" x2="0" y2="-1.27" width="0.127" layer="21"/>
<wire x1="0" y1="-1.27" x2="2.54" y2="-1.27" width="0.127" layer="21"/>
<wire x1="2.54" y1="-1.27" x2="2.54" y2="-2.54" width="0.127" layer="21"/>
<pad name="1" x="0" y="0" drill="1.016" diameter="1.8796" shape="square"/>
<pad name="2" x="2.54" y="0" drill="1.016" diameter="1.8796"/>
</package>
<package name="SCREWTERMINAL-3.5MM-2">
<wire x1="-1.75" y1="3.4" x2="5.25" y2="3.4" width="0.2032" layer="21"/>
<wire x1="5.25" y1="3.4" x2="5.25" y2="-2.8" width="0.2032" layer="21"/>
<wire x1="5.25" y1="-2.8" x2="5.25" y2="-3.6" width="0.2032" layer="21"/>
<wire x1="5.25" y1="-3.6" x2="-1.75" y2="-3.6" width="0.2032" layer="21"/>
<wire x1="-1.75" y1="-3.6" x2="-1.75" y2="-2.8" width="0.2032" layer="21"/>
<wire x1="-1.75" y1="-2.8" x2="-1.75" y2="3.4" width="0.2032" layer="21"/>
<wire x1="5.25" y1="-2.8" x2="-1.75" y2="-2.8" width="0.2032" layer="21"/>
<wire x1="-1.75" y1="-1.35" x2="-2.15" y2="-1.35" width="0.2032" layer="51"/>
<wire x1="-2.15" y1="-1.35" x2="-2.15" y2="-2.35" width="0.2032" layer="51"/>
<wire x1="-2.15" y1="-2.35" x2="-1.75" y2="-2.35" width="0.2032" layer="51"/>
<wire x1="5.25" y1="3.15" x2="5.65" y2="3.15" width="0.2032" layer="51"/>
<wire x1="5.65" y1="3.15" x2="5.65" y2="2.15" width="0.2032" layer="51"/>
<wire x1="5.65" y1="2.15" x2="5.25" y2="2.15" width="0.2032" layer="51"/>
<circle x="2" y="3" radius="0.2828" width="0.127" layer="51"/>
<pad name="1" x="0" y="0" drill="1.2" diameter="2.032" shape="square"/>
<pad name="2" x="3.5" y="0" drill="1.2" diameter="2.032"/>
<text x="-1.27" y="2.54" size="0.4064" layer="25">&gt;NAME</text>
<text x="-1.27" y="1.27" size="0.4064" layer="27">&gt;VALUE</text>
</package>
<package name="JST-2-SMD">
<description>2mm SMD side-entry connector. tDocu layer indicates the actual physical plastic housing. +/- indicate SparkFun standard batteries and wiring.</description>
<wire x1="-4" y1="-1" x2="-4" y2="-4.5" width="0.2032" layer="21"/>
<wire x1="-4" y1="-4.5" x2="-3.2" y2="-4.5" width="0.2032" layer="21"/>
<wire x1="-3.2" y1="-4.5" x2="-3.2" y2="-2" width="0.2032" layer="21"/>
<wire x1="-3.2" y1="-2" x2="-2" y2="-2" width="0.2032" layer="21"/>
<wire x1="2" y1="-2" x2="3.2" y2="-2" width="0.2032" layer="21"/>
<wire x1="3.2" y1="-2" x2="3.2" y2="-4.5" width="0.2032" layer="21"/>
<wire x1="3.2" y1="-4.5" x2="4" y2="-4.5" width="0.2032" layer="21"/>
<wire x1="4" y1="-4.5" x2="4" y2="-1" width="0.2032" layer="21"/>
<wire x1="2" y1="3" x2="-2" y2="3" width="0.2032" layer="21"/>
<smd name="1" x="-1" y="-3.7" dx="1" dy="4.6" layer="1"/>
<smd name="2" x="1" y="-3.7" dx="1" dy="4.6" layer="1"/>
<smd name="NC1" x="-3.4" y="1.5" dx="3.4" dy="1.6" layer="1" rot="R90"/>
<smd name="NC2" x="3.4" y="1.5" dx="3.4" dy="1.6" layer="1" rot="R90"/>
<text x="-1.27" y="1.27" size="0.4064" layer="25">&gt;Name</text>
<text x="-1.27" y="0" size="0.4064" layer="27">&gt;Value</text>
<text x="2.159" y="-4.445" size="1.27" layer="51">+</text>
<text x="-2.921" y="-4.445" size="1.27" layer="51">-</text>
</package>
<package name="1X02_BIG">
<wire x1="-1.27" y1="1.27" x2="-1.27" y2="-1.27" width="0.127" layer="21"/>
<wire x1="-1.27" y1="-1.27" x2="5.08" y2="-1.27" width="0.127" layer="21"/>
<wire x1="5.08" y1="-1.27" x2="5.08" y2="1.27" width="0.127" layer="21"/>
<wire x1="5.08" y1="1.27" x2="-1.27" y2="1.27" width="0.127" layer="21"/>
<pad name="P$1" x="0" y="0" drill="1.0668"/>
<pad name="P$2" x="3.81" y="0" drill="1.0668"/>
</package>
<package name="JST-2-SMD-VERT">
<wire x1="-4.1" y1="2.97" x2="4.2" y2="2.97" width="0.2032" layer="51"/>
<wire x1="4.2" y1="2.97" x2="4.2" y2="-2.13" width="0.2032" layer="51"/>
<wire x1="4.2" y1="-2.13" x2="-4.1" y2="-2.13" width="0.2032" layer="51"/>
<wire x1="-4.1" y1="-2.13" x2="-4.1" y2="2.97" width="0.2032" layer="51"/>
<wire x1="-4.1" y1="3" x2="4.2" y2="3" width="0.2032" layer="21"/>
<wire x1="4.2" y1="3" x2="4.2" y2="2.3" width="0.2032" layer="21"/>
<wire x1="-4.1" y1="3" x2="-4.1" y2="2.3" width="0.2032" layer="21"/>
<wire x1="2" y1="-2.1" x2="4.2" y2="-2.1" width="0.2032" layer="21"/>
<wire x1="4.2" y1="-2.1" x2="4.2" y2="-1.7" width="0.2032" layer="21"/>
<wire x1="-2" y1="-2.1" x2="-4.1" y2="-2.1" width="0.2032" layer="21"/>
<wire x1="-4.1" y1="-2.1" x2="-4.1" y2="-1.8" width="0.2032" layer="21"/>
<smd name="P$1" x="-3.4" y="0.27" dx="3" dy="1.6" layer="1" rot="R90"/>
<smd name="P$2" x="3.4" y="0.27" dx="3" dy="1.6" layer="1" rot="R90"/>
<smd name="VCC" x="-1" y="-2" dx="1" dy="5.5" layer="1"/>
<smd name="GND" x="1" y="-2" dx="1" dy="5.5" layer="1"/>
<text x="2.54" y="-5.08" size="1.27" layer="25">&gt;Name</text>
<text x="2.24" y="3.48" size="1.27" layer="27">&gt;Value</text>
</package>
<package name="R_SW_TH">
<wire x1="-1.651" y1="19.2532" x2="-1.651" y2="-1.3716" width="0.2032" layer="21"/>
<wire x1="-1.651" y1="-1.3716" x2="-1.651" y2="-2.2352" width="0.2032" layer="21"/>
<wire x1="-1.651" y1="19.2532" x2="13.589" y2="19.2532" width="0.2032" layer="21"/>
<wire x1="13.589" y1="19.2532" x2="13.589" y2="-2.2352" width="0.2032" layer="21"/>
<wire x1="13.589" y1="-2.2352" x2="-1.651" y2="-2.2352" width="0.2032" layer="21"/>
<pad name="P$1" x="0" y="0" drill="1.6002"/>
<pad name="P$2" x="0" y="16.9926" drill="1.6002"/>
<pad name="P$3" x="12.0904" y="15.494" drill="1.6002"/>
<pad name="P$4" x="12.0904" y="8.4582" drill="1.6002"/>
</package>
<package name="1X02_LOCK">
<wire x1="-0.635" y1="1.27" x2="0.635" y2="1.27" width="0.2032" layer="21"/>
<wire x1="0.635" y1="1.27" x2="1.27" y2="0.635" width="0.2032" layer="21"/>
<wire x1="1.27" y1="-0.635" x2="0.635" y2="-1.27" width="0.2032" layer="21"/>
<wire x1="1.27" y1="0.635" x2="1.905" y2="1.27" width="0.2032" layer="21"/>
<wire x1="1.905" y1="1.27" x2="3.175" y2="1.27" width="0.2032" layer="21"/>
<wire x1="3.175" y1="1.27" x2="3.81" y2="0.635" width="0.2032" layer="21"/>
<wire x1="3.81" y1="-0.635" x2="3.175" y2="-1.27" width="0.2032" layer="21"/>
<wire x1="3.175" y1="-1.27" x2="1.905" y2="-1.27" width="0.2032" layer="21"/>
<wire x1="1.905" y1="-1.27" x2="1.27" y2="-0.635" width="0.2032" layer="21"/>
<wire x1="-1.27" y1="0.635" x2="-1.27" y2="-0.635" width="0.2032" layer="21"/>
<wire x1="-0.635" y1="1.27" x2="-1.27" y2="0.635" width="0.2032" layer="21"/>
<wire x1="-1.27" y1="-0.635" x2="-0.635" y2="-1.27" width="0.2032" layer="21"/>
<wire x1="0.635" y1="-1.27" x2="-0.635" y2="-1.27" width="0.2032" layer="21"/>
<wire x1="3.81" y1="0.635" x2="3.81" y2="-0.635" width="0.2032" layer="21"/>
<pad name="1" x="-0.1778" y="0" drill="1.016" diameter="1.8796" rot="R90"/>
<pad name="2" x="2.7178" y="0" drill="1.016" diameter="1.8796" rot="R90"/>
<text x="-1.3462" y="1.8288" size="1.27" layer="25" ratio="10">&gt;NAME</text>
<text x="-1.27" y="-3.175" size="1.27" layer="27">&gt;VALUE</text>
<rectangle x1="-0.2921" y1="-0.2921" x2="0.2921" y2="0.2921" layer="51"/>
<rectangle x1="2.2479" y1="-0.2921" x2="2.8321" y2="0.2921" layer="51"/>
</package>
<package name="MOLEX-1X2_LOCK">
<wire x1="-1.27" y1="3.048" x2="-1.27" y2="-2.54" width="0.127" layer="21"/>
<wire x1="3.81" y1="3.048" x2="3.81" y2="-2.54" width="0.127" layer="21"/>
<wire x1="3.81" y1="3.048" x2="-1.27" y2="3.048" width="0.127" layer="21"/>
<wire x1="3.81" y1="-2.54" x2="2.54" y2="-2.54" width="0.127" layer="21"/>
<wire x1="2.54" y1="-2.54" x2="0" y2="-2.54" width="0.127" layer="21"/>
<wire x1="0" y1="-2.54" x2="-1.27" y2="-2.54" width="0.127" layer="21"/>
<wire x1="0" y1="-2.54" x2="0" y2="-1.27" width="0.127" layer="21"/>
<wire x1="0" y1="-1.27" x2="2.54" y2="-1.27" width="0.127" layer="21"/>
<wire x1="2.54" y1="-1.27" x2="2.54" y2="-2.54" width="0.127" layer="21"/>
<pad name="1" x="-0.127" y="0" drill="1.016" diameter="1.8796" shape="square"/>
<pad name="2" x="2.667" y="0" drill="1.016" diameter="1.8796"/>
<rectangle x1="-0.2921" y1="-0.2921" x2="0.2921" y2="0.2921" layer="51"/>
<rectangle x1="2.2479" y1="-0.2921" x2="2.8321" y2="0.2921" layer="51"/>
</package>
<package name="1X02_LOCK_LONGPADS">
<description>This footprint was designed to help hold the alignment of a through-hole component (i.e.  6-pin header) while soldering it into place.  
You may notice that each hole has been shifted either up or down by 0.005 of an inch from it's more standard position (which is a perfectly straight line).  
This slight alteration caused the pins (the squares in the middle) to touch the edges of the holes.  Because they are alternating, it causes a "brace" 
to hold the component in place.  0.005 has proven to be the perfect amount of "off-center" position when using our standard breakaway headers.
Although looks a little odd when you look at the bare footprint, once you have a header in there, the alteration is very hard to notice.  Also,
if you push a header all the way into place, it is covered up entirely on the bottom side.  This idea of altering the position of holes to aid alignment 
will be further integrated into the Sparkfun Library for other footprints.  It can help hold any component with 3 or more connection pins.</description>
<wire x1="1.651" y1="0" x2="0.889" y2="0" width="0.2032" layer="21"/>
<wire x1="-1.27" y1="0" x2="-1.016" y2="0" width="0.2032" layer="21"/>
<wire x1="-1.27" y1="0" x2="-1.27" y2="0.9906" width="0.2032" layer="21"/>
<wire x1="-1.27" y1="0.9906" x2="-0.9906" y2="1.27" width="0.2032" layer="21"/>
<wire x1="-1.27" y1="0" x2="-1.27" y2="-0.9906" width="0.2032" layer="21"/>
<wire x1="-1.27" y1="-0.9906" x2="-0.9906" y2="-1.27" width="0.2032" layer="21"/>
<wire x1="3.81" y1="0" x2="3.556" y2="0" width="0.2032" layer="21"/>
<wire x1="3.81" y1="0" x2="3.81" y2="-0.9906" width="0.2032" layer="21"/>
<wire x1="3.81" y1="-0.9906" x2="3.5306" y2="-1.27" width="0.2032" layer="21"/>
<wire x1="3.81" y1="0" x2="3.81" y2="0.9906" width="0.2032" layer="21"/>
<wire x1="3.81" y1="0.9906" x2="3.5306" y2="1.27" width="0.2032" layer="21"/>
<pad name="1" x="-0.127" y="0" drill="1.016" shape="long" rot="R90"/>
<pad name="2" x="2.667" y="0" drill="1.016" shape="long" rot="R90"/>
<text x="-1.27" y="1.778" size="1.27" layer="25" font="vector">&gt;NAME</text>
<text x="-1.27" y="-3.302" size="1.27" layer="27" font="vector">&gt;VALUE</text>
<rectangle x1="-0.2921" y1="-0.2921" x2="0.2921" y2="0.2921" layer="51"/>
<rectangle x1="2.2479" y1="-0.2921" x2="2.8321" y2="0.2921" layer="51"/>
</package>
<package name="SCREWTERMINAL-3.5MM-2_LOCK">
<wire x1="-1.75" y1="3.4" x2="5.25" y2="3.4" width="0.2032" layer="21"/>
<wire x1="5.25" y1="3.4" x2="5.25" y2="-2.8" width="0.2032" layer="21"/>
<wire x1="5.25" y1="-2.8" x2="5.25" y2="-3.6" width="0.2032" layer="21"/>
<wire x1="5.25" y1="-3.6" x2="-1.75" y2="-3.6" width="0.2032" layer="21"/>
<wire x1="-1.75" y1="-3.6" x2="-1.75" y2="-2.8" width="0.2032" layer="21"/>
<wire x1="-1.75" y1="-2.8" x2="-1.75" y2="3.4" width="0.2032" layer="21"/>
<wire x1="5.25" y1="-2.8" x2="-1.75" y2="-2.8" width="0.2032" layer="21"/>
<wire x1="-1.75" y1="-1.35" x2="-2.15" y2="-1.35" width="0.2032" layer="51"/>
<wire x1="-2.15" y1="-1.35" x2="-2.15" y2="-2.35" width="0.2032" layer="51"/>
<wire x1="-2.15" y1="-2.35" x2="-1.75" y2="-2.35" width="0.2032" layer="51"/>
<wire x1="5.25" y1="3.15" x2="5.65" y2="3.15" width="0.2032" layer="51"/>
<wire x1="5.65" y1="3.15" x2="5.65" y2="2.15" width="0.2032" layer="51"/>
<wire x1="5.65" y1="2.15" x2="5.25" y2="2.15" width="0.2032" layer="51"/>
<circle x="2" y="3" radius="0.2828" width="0.127" layer="51"/>
<circle x="0" y="0" radius="0.4318" width="0.0254" layer="51"/>
<circle x="3.5" y="0" radius="0.4318" width="0.0254" layer="51"/>
<pad name="1" x="-0.1778" y="0" drill="1.2" diameter="2.032" shape="square"/>
<pad name="2" x="3.6778" y="0" drill="1.2" diameter="2.032"/>
<text x="-1.27" y="2.54" size="0.4064" layer="25">&gt;NAME</text>
<text x="-1.27" y="1.27" size="0.4064" layer="27">&gt;VALUE</text>
</package>
<package name="1X02_LONGPADS">
<pad name="1" x="0" y="0" drill="1.1176" diameter="1.8796" shape="long" rot="R90"/>
<pad name="2" x="2.54" y="0" drill="1.1176" diameter="1.8796" shape="long" rot="R90"/>
</package>
<package name="1X02_NO_SILK">
<pad name="1" x="0" y="0" drill="1.016" diameter="1.8796" rot="R90"/>
<pad name="2" x="2.54" y="0" drill="1.016" diameter="1.8796" rot="R90"/>
<text x="-1.3462" y="1.8288" size="1.27" layer="25" ratio="10">&gt;NAME</text>
<text x="-1.27" y="-3.175" size="1.27" layer="27">&gt;VALUE</text>
<rectangle x1="2.286" y1="-0.254" x2="2.794" y2="0.254" layer="51"/>
<rectangle x1="-0.254" y1="-0.254" x2="0.254" y2="0.254" layer="51"/>
</package>
<package name="JST-2-PTH">
<wire x1="-2" y1="0" x2="-2" y2="-1.8" width="0.2032" layer="21"/>
<wire x1="-2" y1="-1.8" x2="-3" y2="-1.8" width="0.2032" layer="21"/>
<wire x1="-3" y1="-1.8" x2="-3" y2="6" width="0.2032" layer="21"/>
<wire x1="-3" y1="6" x2="3" y2="6" width="0.2032" layer="21"/>
<wire x1="3" y1="6" x2="3" y2="-1.8" width="0.2032" layer="21"/>
<wire x1="3" y1="-1.8" x2="2" y2="-1.8" width="0.2032" layer="21"/>
<wire x1="2" y1="-1.8" x2="2" y2="0" width="0.2032" layer="21"/>
<pad name="1" x="-1" y="0" drill="0.7" diameter="1.4478"/>
<pad name="2" x="1" y="0" drill="0.7" diameter="1.4478"/>
<text x="-1.27" y="5.27" size="0.4064" layer="25">&gt;Name</text>
<text x="-1.27" y="4" size="0.4064" layer="27">&gt;Value</text>
<text x="0.6" y="0.7" size="1.27" layer="51">+</text>
<text x="-1.4" y="0.7" size="1.27" layer="51">-</text>
</package>
<package name="1X02_XTRA_BIG">
<wire x1="-5.08" y1="2.54" x2="-5.08" y2="-2.54" width="0.127" layer="21"/>
<wire x1="-5.08" y1="-2.54" x2="5.08" y2="-2.54" width="0.127" layer="21"/>
<wire x1="5.08" y1="-2.54" x2="5.08" y2="2.54" width="0.127" layer="21"/>
<wire x1="5.08" y1="2.54" x2="-5.08" y2="2.54" width="0.127" layer="21"/>
<pad name="1" x="-2.54" y="0" drill="2.0574" diameter="3.556"/>
<pad name="2" x="2.54" y="0" drill="2.0574" diameter="3.556"/>
</package>
<package name="1X02_PP_HOLES_ONLY">
<circle x="0" y="0" radius="0.635" width="0.127" layer="51"/>
<circle x="2.54" y="0" radius="0.635" width="0.127" layer="51"/>
<pad name="1" x="0" y="0" drill="0.889" diameter="0.8128" rot="R90"/>
<pad name="2" x="2.54" y="0" drill="0.889" diameter="0.8128" rot="R90"/>
<hole x="0" y="0" drill="1.4732"/>
<hole x="2.54" y="0" drill="1.4732"/>
</package>
<package name="SCREWTERMINAL-3.5MM-2-NS">
<wire x1="-1.75" y1="3.4" x2="5.25" y2="3.4" width="0.2032" layer="51"/>
<wire x1="5.25" y1="3.4" x2="5.25" y2="-2.8" width="0.2032" layer="51"/>
<wire x1="5.25" y1="-2.8" x2="5.25" y2="-3.6" width="0.2032" layer="51"/>
<wire x1="5.25" y1="-3.6" x2="-1.75" y2="-3.6" width="0.2032" layer="51"/>
<wire x1="-1.75" y1="-3.6" x2="-1.75" y2="-2.8" width="0.2032" layer="51"/>
<wire x1="-1.75" y1="-2.8" x2="-1.75" y2="3.4" width="0.2032" layer="51"/>
<wire x1="5.25" y1="-2.8" x2="-1.75" y2="-2.8" width="0.2032" layer="51"/>
<wire x1="-1.75" y1="-1.35" x2="-2.15" y2="-1.35" width="0.2032" layer="51"/>
<wire x1="-2.15" y1="-1.35" x2="-2.15" y2="-2.35" width="0.2032" layer="51"/>
<wire x1="-2.15" y1="-2.35" x2="-1.75" y2="-2.35" width="0.2032" layer="51"/>
<wire x1="5.25" y1="3.15" x2="5.65" y2="3.15" width="0.2032" layer="51"/>
<wire x1="5.65" y1="3.15" x2="5.65" y2="2.15" width="0.2032" layer="51"/>
<wire x1="5.65" y1="2.15" x2="5.25" y2="2.15" width="0.2032" layer="51"/>
<circle x="2" y="3" radius="0.2828" width="0.127" layer="51"/>
<pad name="1" x="0" y="0" drill="1.2" diameter="2.032" shape="square"/>
<pad name="2" x="3.5" y="0" drill="1.2" diameter="2.032"/>
<text x="-1.27" y="2.54" size="0.4064" layer="25">&gt;NAME</text>
<text x="-1.27" y="1.27" size="0.4064" layer="27">&gt;VALUE</text>
</package>
<package name="JST-2-PTH-NS">
<wire x1="-2" y1="0" x2="-2" y2="-1.8" width="0.2032" layer="51"/>
<wire x1="-2" y1="-1.8" x2="-3" y2="-1.8" width="0.2032" layer="51"/>
<wire x1="-3" y1="-1.8" x2="-3" y2="6" width="0.2032" layer="51"/>
<wire x1="-3" y1="6" x2="3" y2="6" width="0.2032" layer="51"/>
<wire x1="3" y1="6" x2="3" y2="-1.8" width="0.2032" layer="51"/>
<wire x1="3" y1="-1.8" x2="2" y2="-1.8" width="0.2032" layer="51"/>
<wire x1="2" y1="-1.8" x2="2" y2="0" width="0.2032" layer="51"/>
<pad name="1" x="-1" y="0" drill="0.7" diameter="1.4478"/>
<pad name="2" x="1" y="0" drill="0.7" diameter="1.4478"/>
<text x="-1.27" y="5.27" size="0.4064" layer="25">&gt;Name</text>
<text x="-1.27" y="4" size="0.4064" layer="27">&gt;Value</text>
<text x="0.6" y="0.7" size="1.27" layer="51">+</text>
<text x="-1.4" y="0.7" size="1.27" layer="51">-</text>
</package>
<package name="JST-2-PTH-KIT">
<description>&lt;H3&gt;JST-2-PTH-KIT&lt;/h3&gt;
2-Pin JST, through-hole connector&lt;br&gt;
&lt;br&gt;
&lt;b&gt;Warning:&lt;/b&gt; This is the KIT version of this package. This package has a smaller diameter top stop mask, which doesn't cover the diameter of the pad. This means only the bottom side of the pads' copper will be exposed. You'll only be able to solder to the bottom side.</description>
<wire x1="-2" y1="0" x2="-2" y2="-1.8" width="0.2032" layer="51"/>
<wire x1="-2" y1="-1.8" x2="-3" y2="-1.8" width="0.2032" layer="51"/>
<wire x1="-3" y1="-1.8" x2="-3" y2="6" width="0.2032" layer="51"/>
<wire x1="-3" y1="6" x2="3" y2="6" width="0.2032" layer="51"/>
<wire x1="3" y1="6" x2="3" y2="-1.8" width="0.2032" layer="51"/>
<wire x1="3" y1="-1.8" x2="2" y2="-1.8" width="0.2032" layer="51"/>
<wire x1="2" y1="-1.8" x2="2" y2="0" width="0.2032" layer="51"/>
<pad name="1" x="-1" y="0" drill="0.7" diameter="1.4478" stop="no"/>
<pad name="2" x="1" y="0" drill="0.7" diameter="1.4478" stop="no"/>
<text x="-1.27" y="5.27" size="0.4064" layer="25">&gt;Name</text>
<text x="-1.27" y="4" size="0.4064" layer="27">&gt;Value</text>
<text x="0.6" y="0.7" size="1.27" layer="51">+</text>
<text x="-1.4" y="0.7" size="1.27" layer="51">-</text>
<polygon width="0.127" layer="30">
<vertex x="-0.9975" y="-0.6604" curve="-90.025935"/>
<vertex x="-1.6604" y="0" curve="-90.017354"/>
<vertex x="-1" y="0.6604" curve="-90"/>
<vertex x="-0.3396" y="0" curve="-90.078137"/>
</polygon>
<polygon width="0.127" layer="29">
<vertex x="-1" y="-0.2865" curve="-90.08005"/>
<vertex x="-1.2865" y="0" curve="-90.040011"/>
<vertex x="-1" y="0.2865" curve="-90"/>
<vertex x="-0.7135" y="0" curve="-90"/>
</polygon>
<polygon width="0.127" layer="30">
<vertex x="1.0025" y="-0.6604" curve="-90.025935"/>
<vertex x="0.3396" y="0" curve="-90.017354"/>
<vertex x="1" y="0.6604" curve="-90"/>
<vertex x="1.6604" y="0" curve="-90.078137"/>
</polygon>
<polygon width="0.127" layer="29">
<vertex x="1" y="-0.2865" curve="-90.08005"/>
<vertex x="0.7135" y="0" curve="-90.040011"/>
<vertex x="1" y="0.2865" curve="-90"/>
<vertex x="1.2865" y="0" curve="-90"/>
</polygon>
</package>
<package name="SPRINGTERMINAL-2.54MM-2">
<wire x1="-4.2" y1="7.88" x2="-4.2" y2="-2.8" width="0.254" layer="21"/>
<wire x1="-4.2" y1="-2.8" x2="-4.2" y2="-4.72" width="0.254" layer="51"/>
<wire x1="-4.2" y1="-4.72" x2="3.44" y2="-4.72" width="0.254" layer="51"/>
<wire x1="3.44" y1="-4.72" x2="3.44" y2="-2.8" width="0.254" layer="51"/>
<wire x1="3.44" y1="7.88" x2="-4.2" y2="7.88" width="0.254" layer="21"/>
<wire x1="0" y1="0" x2="0" y2="5.08" width="0.254" layer="1"/>
<wire x1="0" y1="0" x2="0" y2="5.08" width="0.254" layer="16"/>
<wire x1="2.54" y1="0" x2="2.54" y2="5.08" width="0.254" layer="16"/>
<wire x1="2.54" y1="0" x2="2.54" y2="5.08" width="0.254" layer="1"/>
<wire x1="-4.2" y1="-2.8" x2="3.44" y2="-2.8" width="0.254" layer="21"/>
<wire x1="3.44" y1="4" x2="3.44" y2="1" width="0.254" layer="21"/>
<wire x1="3.44" y1="7.88" x2="3.44" y2="6" width="0.254" layer="21"/>
<wire x1="3.44" y1="-0.9" x2="3.44" y2="-2.8" width="0.254" layer="21"/>
<pad name="1" x="0" y="0" drill="1.1" diameter="1.9"/>
<pad name="P$2" x="0" y="5.08" drill="1.1" diameter="1.9"/>
<pad name="P$3" x="2.54" y="5.08" drill="1.1" diameter="1.9"/>
<pad name="2" x="2.54" y="0" drill="1.1" diameter="1.9"/>
</package>
<package name="1X04">
<wire x1="6.985" y1="1.27" x2="8.255" y2="1.27" width="0.2032" layer="21"/>
<wire x1="8.255" y1="1.27" x2="8.89" y2="0.635" width="0.2032" layer="21"/>
<wire x1="8.89" y1="-0.635" x2="8.255" y2="-1.27" width="0.2032" layer="21"/>
<wire x1="3.81" y1="0.635" x2="4.445" y2="1.27" width="0.2032" layer="21"/>
<wire x1="4.445" y1="1.27" x2="5.715" y2="1.27" width="0.2032" layer="21"/>
<wire x1="5.715" y1="1.27" x2="6.35" y2="0.635" width="0.2032" layer="21"/>
<wire x1="6.35" y1="-0.635" x2="5.715" y2="-1.27" width="0.2032" layer="21"/>
<wire x1="5.715" y1="-1.27" x2="4.445" y2="-1.27" width="0.2032" layer="21"/>
<wire x1="4.445" y1="-1.27" x2="3.81" y2="-0.635" width="0.2032" layer="21"/>
<wire x1="6.985" y1="1.27" x2="6.35" y2="0.635" width="0.2032" layer="21"/>
<wire x1="6.35" y1="-0.635" x2="6.985" y2="-1.27" width="0.2032" layer="21"/>
<wire x1="8.255" y1="-1.27" x2="6.985" y2="-1.27" width="0.2032" layer="21"/>
<wire x1="-0.635" y1="1.27" x2="0.635" y2="1.27" width="0.2032" layer="21"/>
<wire x1="0.635" y1="1.27" x2="1.27" y2="0.635" width="0.2032" layer="21"/>
<wire x1="1.27" y1="-0.635" x2="0.635" y2="-1.27" width="0.2032" layer="21"/>
<wire x1="1.27" y1="0.635" x2="1.905" y2="1.27" width="0.2032" layer="21"/>
<wire x1="1.905" y1="1.27" x2="3.175" y2="1.27" width="0.2032" layer="21"/>
<wire x1="3.175" y1="1.27" x2="3.81" y2="0.635" width="0.2032" layer="21"/>
<wire x1="3.81" y1="-0.635" x2="3.175" y2="-1.27" width="0.2032" layer="21"/>
<wire x1="3.175" y1="-1.27" x2="1.905" y2="-1.27" width="0.2032" layer="21"/>
<wire x1="1.905" y1="-1.27" x2="1.27" y2="-0.635" width="0.2032" layer="21"/>
<wire x1="-1.27" y1="0.635" x2="-1.27" y2="-0.635" width="0.2032" layer="21"/>
<wire x1="-0.635" y1="1.27" x2="-1.27" y2="0.635" width="0.2032" layer="21"/>
<wire x1="-1.27" y1="-0.635" x2="-0.635" y2="-1.27" width="0.2032" layer="21"/>
<wire x1="0.635" y1="-1.27" x2="-0.635" y2="-1.27" width="0.2032" layer="21"/>
<wire x1="8.89" y1="0.635" x2="8.89" y2="-0.635" width="0.2032" layer="21"/>
<pad name="1" x="0" y="0" drill="1.016" diameter="1.8796" shape="square" rot="R90"/>
<pad name="2" x="2.54" y="0" drill="1.016" diameter="1.8796" rot="R90"/>
<pad name="3" x="5.08" y="0" drill="1.016" diameter="1.8796" rot="R90"/>
<pad name="4" x="7.62" y="0" drill="1.016" diameter="1.8796" rot="R90"/>
<text x="-1.3462" y="1.8288" size="1.27" layer="25" ratio="10">&gt;NAME</text>
<text x="-1.27" y="-3.175" size="1.27" layer="27">&gt;VALUE</text>
<rectangle x1="7.366" y1="-0.254" x2="7.874" y2="0.254" layer="51"/>
<rectangle x1="4.826" y1="-0.254" x2="5.334" y2="0.254" layer="51"/>
<rectangle x1="2.286" y1="-0.254" x2="2.794" y2="0.254" layer="51"/>
<rectangle x1="-0.254" y1="-0.254" x2="0.254" y2="0.254" layer="51"/>
</package>
<package name="MOLEX-1X4">
<wire x1="-1.27" y1="3.048" x2="-1.27" y2="-2.54" width="0.127" layer="21"/>
<wire x1="8.89" y1="3.048" x2="8.89" y2="-2.54" width="0.127" layer="21"/>
<wire x1="8.89" y1="3.048" x2="-1.27" y2="3.048" width="0.127" layer="21"/>
<wire x1="8.89" y1="-2.54" x2="7.62" y2="-2.54" width="0.127" layer="21"/>
<wire x1="7.62" y1="-2.54" x2="0" y2="-2.54" width="0.127" layer="21"/>
<wire x1="0" y1="-2.54" x2="-1.27" y2="-2.54" width="0.127" layer="21"/>
<wire x1="0" y1="-2.54" x2="0" y2="-1.27" width="0.127" layer="21"/>
<wire x1="0" y1="-1.27" x2="7.62" y2="-1.27" width="0.127" layer="21"/>
<wire x1="7.62" y1="-1.27" x2="7.62" y2="-2.54" width="0.127" layer="21"/>
<pad name="1" x="0" y="0" drill="1.016" diameter="1.8796" shape="square"/>
<pad name="2" x="2.54" y="0" drill="1.016" diameter="1.8796"/>
<pad name="3" x="5.08" y="0" drill="1.016" diameter="1.8796"/>
<pad name="4" x="7.62" y="0" drill="1.016" diameter="1.8796"/>
</package>
<package name="SCREWTERMINAL-3.5MM-4">
<wire x1="-2.3" y1="3.4" x2="12.8" y2="3.4" width="0.2032" layer="21"/>
<wire x1="12.8" y1="3.4" x2="12.8" y2="-2.8" width="0.2032" layer="21"/>
<wire x1="12.8" y1="-2.8" x2="12.8" y2="-3.6" width="0.2032" layer="21"/>
<wire x1="12.8" y1="-3.6" x2="-2.3" y2="-3.6" width="0.2032" layer="21"/>
<wire x1="-2.3" y1="-3.6" x2="-2.3" y2="-2.8" width="0.2032" layer="21"/>
<wire x1="-2.3" y1="-2.8" x2="-2.3" y2="3.4" width="0.2032" layer="21"/>
<wire x1="12.8" y1="-2.8" x2="-2.3" y2="-2.8" width="0.2032" layer="21"/>
<wire x1="-2.3" y1="-1.35" x2="-2.7" y2="-1.35" width="0.2032" layer="51"/>
<wire x1="-2.7" y1="-1.35" x2="-2.7" y2="-2.35" width="0.2032" layer="51"/>
<wire x1="-2.7" y1="-2.35" x2="-2.3" y2="-2.35" width="0.2032" layer="51"/>
<wire x1="12.8" y1="3.15" x2="13.2" y2="3.15" width="0.2032" layer="51"/>
<wire x1="13.2" y1="3.15" x2="13.2" y2="2.15" width="0.2032" layer="51"/>
<wire x1="13.2" y1="2.15" x2="12.8" y2="2.15" width="0.2032" layer="51"/>
<circle x="0" y="0" radius="0.425" width="0.001" layer="51"/>
<circle x="3.5" y="0" radius="0.425" width="0.001" layer="51"/>
<circle x="7" y="0" radius="0.425" width="0.001" layer="51"/>
<circle x="10.5" y="0" radius="0.425" width="0.001" layer="51"/>
<pad name="1" x="0" y="0" drill="1.2" diameter="2.032" shape="square"/>
<pad name="2" x="3.5" y="0" drill="1.2" diameter="2.032"/>
<pad name="3" x="7" y="0" drill="1.2" diameter="2.032"/>
<pad name="4" x="10.5" y="0" drill="1.2" diameter="2.032"/>
<text x="-1.27" y="2.54" size="0.4064" layer="25">&gt;NAME</text>
<text x="-1.27" y="1.27" size="0.4064" layer="27">&gt;VALUE</text>
</package>
<package name="1X04-1.27MM">
<wire x1="-0.381" y1="-0.889" x2="0.381" y2="-0.889" width="0.127" layer="21"/>
<wire x1="0.381" y1="-0.889" x2="0.635" y2="-0.635" width="0.127" layer="21"/>
<wire x1="0.635" y1="-0.635" x2="0.889" y2="-0.889" width="0.127" layer="21"/>
<wire x1="0.889" y1="-0.889" x2="1.651" y2="-0.889" width="0.127" layer="21"/>
<wire x1="1.651" y1="-0.889" x2="1.905" y2="-0.635" width="0.127" layer="21"/>
<wire x1="1.905" y1="-0.635" x2="2.159" y2="-0.889" width="0.127" layer="21"/>
<wire x1="2.159" y1="-0.889" x2="2.921" y2="-0.889" width="0.127" layer="21"/>
<wire x1="2.921" y1="-0.889" x2="3.175" y2="-0.635" width="0.127" layer="21"/>
<wire x1="3.175" y1="-0.635" x2="3.429" y2="-0.889" width="0.127" layer="21"/>
<wire x1="3.429" y1="-0.889" x2="4.191" y2="-0.889" width="0.127" layer="21"/>
<wire x1="4.191" y1="0.889" x2="3.429" y2="0.889" width="0.127" layer="21"/>
<wire x1="3.429" y1="0.889" x2="3.175" y2="0.635" width="0.127" layer="21"/>
<wire x1="3.175" y1="0.635" x2="2.921" y2="0.889" width="0.127" layer="21"/>
<wire x1="2.921" y1="0.889" x2="2.159" y2="0.889" width="0.127" layer="21"/>
<wire x1="2.159" y1="0.889" x2="1.905" y2="0.635" width="0.127" layer="21"/>
<wire x1="1.905" y1="0.635" x2="1.651" y2="0.889" width="0.127" layer="21"/>
<wire x1="1.651" y1="0.889" x2="0.889" y2="0.889" width="0.127" layer="21"/>
<wire x1="0.889" y1="0.889" x2="0.635" y2="0.635" width="0.127" layer="21"/>
<wire x1="0.635" y1="0.635" x2="0.381" y2="0.889" width="0.127" layer="21"/>
<wire x1="0.381" y1="0.889" x2="-0.381" y2="0.889" width="0.127" layer="21"/>
<wire x1="-0.381" y1="0.889" x2="-0.889" y2="0.381" width="0.127" layer="21"/>
<wire x1="-0.889" y1="-0.381" x2="-0.381" y2="-0.889" width="0.127" layer="21"/>
<wire x1="-0.889" y1="0.381" x2="-0.889" y2="-0.381" width="0.127" layer="21"/>
<wire x1="4.191" y1="0.889" x2="4.699" y2="0.381" width="0.127" layer="21"/>
<wire x1="4.699" y1="0.381" x2="4.699" y2="-0.381" width="0.127" layer="21"/>
<wire x1="4.699" y1="-0.381" x2="4.191" y2="-0.889" width="0.127" layer="21"/>
<pad name="4" x="3.81" y="0" drill="0.508" diameter="1"/>
<pad name="3" x="2.54" y="0" drill="0.508" diameter="1"/>
<pad name="2" x="1.27" y="0" drill="0.508" diameter="1"/>
<pad name="1" x="0" y="0" drill="0.508" diameter="1"/>
<text x="-0.508" y="1.27" size="0.4064" layer="25">&gt;NAME</text>
<text x="-0.508" y="-1.651" size="0.4064" layer="27">&gt;VALUE</text>
</package>
<package name="1X04_LOCK">
<wire x1="6.985" y1="1.27" x2="8.255" y2="1.27" width="0.2032" layer="21"/>
<wire x1="8.255" y1="1.27" x2="8.89" y2="0.635" width="0.2032" layer="21"/>
<wire x1="8.89" y1="-0.635" x2="8.255" y2="-1.27" width="0.2032" layer="21"/>
<wire x1="3.81" y1="0.635" x2="4.445" y2="1.27" width="0.2032" layer="21"/>
<wire x1="4.445" y1="1.27" x2="5.715" y2="1.27" width="0.2032" layer="21"/>
<wire x1="5.715" y1="1.27" x2="6.35" y2="0.635" width="0.2032" layer="21"/>
<wire x1="6.35" y1="-0.635" x2="5.715" y2="-1.27" width="0.2032" layer="21"/>
<wire x1="5.715" y1="-1.27" x2="4.445" y2="-1.27" width="0.2032" layer="21"/>
<wire x1="4.445" y1="-1.27" x2="3.81" y2="-0.635" width="0.2032" layer="21"/>
<wire x1="6.985" y1="1.27" x2="6.35" y2="0.635" width="0.2032" layer="21"/>
<wire x1="6.35" y1="-0.635" x2="6.985" y2="-1.27" width="0.2032" layer="21"/>
<wire x1="8.255" y1="-1.27" x2="6.985" y2="-1.27" width="0.2032" layer="21"/>
<wire x1="-0.635" y1="1.27" x2="0.635" y2="1.27" width="0.2032" layer="21"/>
<wire x1="0.635" y1="1.27" x2="1.27" y2="0.635" width="0.2032" layer="21"/>
<wire x1="1.27" y1="-0.635" x2="0.635" y2="-1.27" width="0.2032" layer="21"/>
<wire x1="1.27" y1="0.635" x2="1.905" y2="1.27" width="0.2032" layer="21"/>
<wire x1="1.905" y1="1.27" x2="3.175" y2="1.27" width="0.2032" layer="21"/>
<wire x1="3.175" y1="1.27" x2="3.81" y2="0.635" width="0.2032" layer="21"/>
<wire x1="3.81" y1="-0.635" x2="3.175" y2="-1.27" width="0.2032" layer="21"/>
<wire x1="3.175" y1="-1.27" x2="1.905" y2="-1.27" width="0.2032" layer="21"/>
<wire x1="1.905" y1="-1.27" x2="1.27" y2="-0.635" width="0.2032" layer="21"/>
<wire x1="-1.27" y1="0.635" x2="-1.27" y2="-0.635" width="0.2032" layer="21"/>
<wire x1="-0.635" y1="1.27" x2="-1.27" y2="0.635" width="0.2032" layer="21"/>
<wire x1="-1.27" y1="-0.635" x2="-0.635" y2="-1.27" width="0.2032" layer="21"/>
<wire x1="0.635" y1="-1.27" x2="-0.635" y2="-1.27" width="0.2032" layer="21"/>
<wire x1="8.89" y1="0.635" x2="8.89" y2="-0.635" width="0.2032" layer="21"/>
<pad name="1" x="0" y="0.127" drill="1.016" diameter="1.8796" shape="square" rot="R90"/>
<pad name="2" x="2.54" y="-0.127" drill="1.016" diameter="1.8796" rot="R90"/>
<pad name="3" x="5.08" y="0.127" drill="1.016" diameter="1.8796" rot="R90"/>
<pad name="4" x="7.62" y="-0.127" drill="1.016" diameter="1.8796" rot="R90"/>
<text x="-1.3462" y="1.8288" size="1.27" layer="25" ratio="10">&gt;NAME</text>
<text x="-1.27" y="-3.175" size="1.27" layer="27">&gt;VALUE</text>
<rectangle x1="7.366" y1="-0.254" x2="7.874" y2="0.254" layer="51"/>
<rectangle x1="4.826" y1="-0.254" x2="5.334" y2="0.254" layer="51"/>
<rectangle x1="2.286" y1="-0.254" x2="2.794" y2="0.254" layer="51"/>
<rectangle x1="-0.254" y1="-0.254" x2="0.254" y2="0.254" layer="51"/>
</package>
<package name="1X04_LOCK_LONGPADS">
<description>This footprint was designed to help hold the alignment of a through-hole component (i.e.  6-pin header) while soldering it into place.  
You may notice that each hole has been shifted either up or down by 0.005 of an inch from it's more standard position (which is a perfectly straight line).  
This slight alteration caused the pins (the squares in the middle) to touch the edges of the holes.  Because they are alternating, it causes a "brace" 
to hold the component in place.  0.005 has proven to be the perfect amount of "off-center" position when using our standard breakaway headers.
Although looks a little odd when you look at the bare footprint, once you have a header in there, the alteration is very hard to notice.  Also,
if you push a header all the way into place, it is covered up entirely on the bottom side.  This idea of altering the position of holes to aid alignment 
will be further integrated into the Sparkfun Library for other footprints.  It can help hold any component with 3 or more connection pins.</description>
<wire x1="1.524" y1="-0.127" x2="1.016" y2="-0.127" width="0.2032" layer="21"/>
<wire x1="4.064" y1="-0.127" x2="3.556" y2="-0.127" width="0.2032" layer="21"/>
<wire x1="6.604" y1="-0.127" x2="6.096" y2="-0.127" width="0.2032" layer="21"/>
<wire x1="-1.27" y1="-0.127" x2="-1.016" y2="-0.127" width="0.2032" layer="21"/>
<wire x1="-1.27" y1="-0.127" x2="-1.27" y2="0.8636" width="0.2032" layer="21"/>
<wire x1="-1.27" y1="0.8636" x2="-0.9906" y2="1.143" width="0.2032" layer="21"/>
<wire x1="-1.27" y1="-0.127" x2="-1.27" y2="-1.1176" width="0.2032" layer="21"/>
<wire x1="-1.27" y1="-1.1176" x2="-0.9906" y2="-1.397" width="0.2032" layer="21"/>
<wire x1="8.89" y1="-0.127" x2="8.636" y2="-0.127" width="0.2032" layer="21"/>
<wire x1="8.89" y1="-0.127" x2="8.89" y2="-1.1176" width="0.2032" layer="21"/>
<wire x1="8.89" y1="-1.1176" x2="8.6106" y2="-1.397" width="0.2032" layer="21"/>
<wire x1="8.89" y1="-0.127" x2="8.89" y2="0.8636" width="0.2032" layer="21"/>
<wire x1="8.89" y1="0.8636" x2="8.6106" y2="1.143" width="0.2032" layer="21"/>
<pad name="1" x="0" y="0" drill="1.016" shape="long" rot="R90"/>
<pad name="2" x="2.54" y="-0.254" drill="1.016" shape="long" rot="R90"/>
<pad name="3" x="5.08" y="0" drill="1.016" shape="long" rot="R90"/>
<pad name="4" x="7.62" y="-0.254" drill="1.016" shape="long" rot="R90"/>
<text x="-1.27" y="1.778" size="1.27" layer="25" font="vector">&gt;NAME</text>
<text x="-1.27" y="-3.302" size="1.27" layer="27" font="vector">&gt;VALUE</text>
<rectangle x1="-0.2921" y1="-0.4191" x2="0.2921" y2="0.1651" layer="51"/>
<rectangle x1="2.2479" y1="-0.4191" x2="2.8321" y2="0.1651" layer="51"/>
<rectangle x1="4.7879" y1="-0.4191" x2="5.3721" y2="0.1651" layer="51"/>
<rectangle x1="7.3279" y1="-0.4191" x2="7.9121" y2="0.1651" layer="51" rot="R90"/>
</package>
<package name="MOLEX-1X4_LOCK">
<wire x1="-1.27" y1="3.048" x2="-1.27" y2="-2.54" width="0.127" layer="21"/>
<wire x1="8.89" y1="3.048" x2="8.89" y2="-2.54" width="0.127" layer="21"/>
<wire x1="8.89" y1="3.048" x2="-1.27" y2="3.048" width="0.127" layer="21"/>
<wire x1="8.89" y1="-2.54" x2="7.62" y2="-2.54" width="0.127" layer="21"/>
<wire x1="7.62" y1="-2.54" x2="0" y2="-2.54" width="0.127" layer="21"/>
<wire x1="0" y1="-2.54" x2="-1.27" y2="-2.54" width="0.127" layer="21"/>
<wire x1="0" y1="-2.54" x2="0" y2="-1.27" width="0.127" layer="21"/>
<wire x1="0" y1="-1.27" x2="7.62" y2="-1.27" width="0.127" layer="21"/>
<wire x1="7.62" y1="-1.27" x2="7.62" y2="-2.54" width="0.127" layer="21"/>
<pad name="1" x="0" y="0.127" drill="1.016" diameter="1.8796" shape="square"/>
<pad name="2" x="2.54" y="-0.127" drill="1.016" diameter="1.8796"/>
<pad name="3" x="5.08" y="0.127" drill="1.016" diameter="1.8796"/>
<pad name="4" x="7.62" y="-0.127" drill="1.016" diameter="1.8796"/>
</package>
<package name="1X04-SMD">
<wire x1="5.08" y1="1.25" x2="-5.08" y2="1.25" width="0.127" layer="51"/>
<wire x1="-5.08" y1="1.25" x2="-5.08" y2="-1.25" width="0.127" layer="51"/>
<wire x1="-5.08" y1="-1.25" x2="-3.81" y2="-1.25" width="0.127" layer="51"/>
<wire x1="-3.81" y1="-1.25" x2="-1.27" y2="-1.25" width="0.127" layer="51"/>
<wire x1="-1.27" y1="-1.25" x2="1.27" y2="-1.25" width="0.127" layer="51"/>
<wire x1="1.27" y1="-1.25" x2="3.81" y2="-1.25" width="0.127" layer="51"/>
<wire x1="3.81" y1="-1.25" x2="5.08" y2="-1.25" width="0.127" layer="51"/>
<wire x1="5.08" y1="-1.25" x2="5.08" y2="1.25" width="0.127" layer="51"/>
<wire x1="3.81" y1="-1.25" x2="3.81" y2="-7.25" width="0.127" layer="51"/>
<wire x1="1.27" y1="-1.25" x2="1.27" y2="-7.25" width="0.127" layer="51"/>
<wire x1="-1.27" y1="-1.25" x2="-1.27" y2="-7.25" width="0.127" layer="51"/>
<wire x1="-3.81" y1="-1.25" x2="-3.81" y2="-7.25" width="0.127" layer="51"/>
<smd name="4" x="3.81" y="5" dx="3" dy="1" layer="1" rot="R90"/>
<smd name="3" x="1.27" y="5" dx="3" dy="1" layer="1" rot="R90"/>
<smd name="2" x="-1.27" y="5" dx="3" dy="1" layer="1" rot="R90"/>
<smd name="1" x="-3.81" y="5" dx="3" dy="1" layer="1" rot="R90"/>
<hole x="-2.54" y="0" drill="1.4"/>
<hole x="2.54" y="0" drill="1.4"/>
</package>
<package name="1X04_LONGPADS">
<wire x1="-1.27" y1="0.635" x2="-1.27" y2="-0.635" width="0.2032" layer="21"/>
<wire x1="8.89" y1="0.635" x2="8.89" y2="-0.635" width="0.2032" layer="21"/>
<pad name="1" x="0" y="0" drill="1.1176" diameter="1.8796" shape="long" rot="R90"/>
<pad name="2" x="2.54" y="0" drill="1.1176" diameter="1.8796" shape="long" rot="R90"/>
<pad name="3" x="5.08" y="0" drill="1.1176" diameter="1.8796" shape="long" rot="R90"/>
<pad name="4" x="7.62" y="0" drill="1.1176" diameter="1.8796" shape="long" rot="R90"/>
<text x="-1.3462" y="2.4638" size="1.27" layer="25" ratio="10">&gt;NAME</text>
<text x="-1.27" y="-3.81" size="1.27" layer="27">&gt;VALUE</text>
<rectangle x1="7.366" y1="-0.254" x2="7.874" y2="0.254" layer="51"/>
<rectangle x1="4.826" y1="-0.254" x2="5.334" y2="0.254" layer="51"/>
<rectangle x1="2.286" y1="-0.254" x2="2.794" y2="0.254" layer="51"/>
<rectangle x1="-0.254" y1="-0.254" x2="0.254" y2="0.254" layer="51"/>
</package>
<package name="1X04_NO_SILK">
<pad name="1" x="0" y="0" drill="1.016" diameter="1.8796" shape="square" rot="R90"/>
<pad name="2" x="2.54" y="0" drill="1.016" diameter="1.8796" rot="R90"/>
<pad name="3" x="5.08" y="0" drill="1.016" diameter="1.8796" rot="R90"/>
<pad name="4" x="7.62" y="0" drill="1.016" diameter="1.8796" rot="R90"/>
<text x="-1.3462" y="1.8288" size="1.27" layer="25" ratio="10">&gt;NAME</text>
<text x="-1.27" y="-3.175" size="1.27" layer="27">&gt;VALUE</text>
<rectangle x1="7.366" y1="-0.254" x2="7.874" y2="0.254" layer="51"/>
<rectangle x1="4.826" y1="-0.254" x2="5.334" y2="0.254" layer="51"/>
<rectangle x1="2.286" y1="-0.254" x2="2.794" y2="0.254" layer="51"/>
<rectangle x1="-0.254" y1="-0.254" x2="0.254" y2="0.254" layer="51"/>
</package>
<package name="JST-4-PTH">
<wire x1="-4.5" y1="-5" x2="-5.2" y2="-5" width="0.2032" layer="21"/>
<wire x1="-5.2" y1="-5" x2="-5.2" y2="-6.3" width="0.2032" layer="21"/>
<wire x1="-5.2" y1="-6.3" x2="-6" y2="-6.3" width="0.2032" layer="21"/>
<wire x1="-6" y1="-6.3" x2="-6" y2="1.1" width="0.2032" layer="21"/>
<wire x1="-6" y1="1.1" x2="6" y2="1.1" width="0.2032" layer="21"/>
<wire x1="6" y1="1.1" x2="6" y2="-6.3" width="0.2032" layer="21"/>
<wire x1="6" y1="-6.3" x2="5.2" y2="-6.3" width="0.2032" layer="21"/>
<wire x1="5.2" y1="-6.3" x2="5.2" y2="-5" width="0.2032" layer="21"/>
<wire x1="5.2" y1="-5" x2="4.5" y2="-5" width="0.2032" layer="21"/>
<pad name="1" x="-3" y="-5" drill="0.7"/>
<pad name="2" x="-1" y="-5" drill="0.7"/>
<pad name="3" x="1" y="-5" drill="0.7"/>
<pad name="4" x="3" y="-5" drill="0.7"/>
<text x="-2.27" y="0.27" size="0.4064" layer="25">&gt;Name</text>
<text x="-2.27" y="-1" size="0.4064" layer="27">&gt;Value</text>
<text x="-3.4" y="-4.3" size="1.27" layer="51">+</text>
<text x="-1.4" y="-4.3" size="1.27" layer="51">-</text>
<text x="0.7" y="-4.1" size="0.8" layer="51">S</text>
<text x="2.7" y="-4.1" size="0.8" layer="51">S</text>
</package>
<package name="SCREWTERMINAL-3.5MM-4_LOCK">
<wire x1="-2.3" y1="3.4" x2="12.8" y2="3.4" width="0.2032" layer="21"/>
<wire x1="12.8" y1="3.4" x2="12.8" y2="-2.8" width="0.2032" layer="21"/>
<wire x1="12.8" y1="-2.8" x2="12.8" y2="-3.6" width="0.2032" layer="21"/>
<wire x1="12.8" y1="-3.6" x2="-2.3" y2="-3.6" width="0.2032" layer="21"/>
<wire x1="-2.3" y1="-3.6" x2="-2.3" y2="-2.8" width="0.2032" layer="21"/>
<wire x1="-2.3" y1="-2.8" x2="-2.3" y2="3.4" width="0.2032" layer="21"/>
<wire x1="12.8" y1="-2.8" x2="-2.3" y2="-2.8" width="0.2032" layer="21"/>
<wire x1="-2.3" y1="-1.35" x2="-2.7" y2="-1.35" width="0.2032" layer="51"/>
<wire x1="-2.7" y1="-1.35" x2="-2.7" y2="-2.35" width="0.2032" layer="51"/>
<wire x1="-2.7" y1="-2.35" x2="-2.3" y2="-2.35" width="0.2032" layer="51"/>
<wire x1="12.8" y1="3.15" x2="13.2" y2="3.15" width="0.2032" layer="51"/>
<wire x1="13.2" y1="3.15" x2="13.2" y2="2.15" width="0.2032" layer="51"/>
<wire x1="13.2" y1="2.15" x2="12.8" y2="2.15" width="0.2032" layer="51"/>
<circle x="0" y="0" radius="0.425" width="0.001" layer="51"/>
<circle x="3.5" y="0" radius="0.425" width="0.001" layer="51"/>
<circle x="7" y="0" radius="0.425" width="0.001" layer="51"/>
<circle x="10.5" y="0" radius="0.425" width="0.001" layer="51"/>
<pad name="1" x="-0.1778" y="0" drill="1.2" diameter="2.032" shape="square"/>
<pad name="2" x="3.6778" y="0" drill="1.2" diameter="2.032"/>
<pad name="3" x="6.8222" y="0" drill="1.2" diameter="2.032"/>
<pad name="4" x="10.6778" y="0" drill="1.2" diameter="2.032"/>
<text x="-1.27" y="2.54" size="0.4064" layer="25">&gt;NAME</text>
<text x="-1.27" y="1.27" size="0.4064" layer="27">&gt;VALUE</text>
</package>
<package name="1X04-1MM-RA">
<wire x1="-1.5" y1="-4.6" x2="1.5" y2="-4.6" width="0.254" layer="21"/>
<wire x1="-3" y1="-2" x2="-3" y2="-0.35" width="0.254" layer="21"/>
<wire x1="2.25" y1="-0.35" x2="3" y2="-0.35" width="0.254" layer="21"/>
<wire x1="3" y1="-0.35" x2="3" y2="-2" width="0.254" layer="21"/>
<wire x1="-3" y1="-0.35" x2="-2.25" y2="-0.35" width="0.254" layer="21"/>
<circle x="-2.5" y="0.3" radius="0.1414" width="0.4" layer="21"/>
<smd name="NC2" x="-2.8" y="-3.675" dx="1.2" dy="2" layer="1"/>
<smd name="NC1" x="2.8" y="-3.675" dx="1.2" dy="2" layer="1"/>
<smd name="1" x="-1.5" y="0" dx="0.6" dy="1.35" layer="1"/>
<smd name="2" x="-0.5" y="0" dx="0.6" dy="1.35" layer="1"/>
<smd name="3" x="0.5" y="0" dx="0.6" dy="1.35" layer="1"/>
<smd name="4" x="1.5" y="0" dx="0.6" dy="1.35" layer="1"/>
<text x="-1.73" y="1.73" size="0.4064" layer="25" rot="R180">&gt;NAME</text>
<text x="3.46" y="1.73" size="0.4064" layer="27" rot="R180">&gt;VALUE</text>
</package>
</packages>
<symbols>
<symbol name="STAND-OFF">
<circle x="0" y="0" radius="1.27" width="0.254" layer="94"/>
</symbol>
<symbol name="M02">
<wire x1="3.81" y1="-2.54" x2="-2.54" y2="-2.54" width="0.4064" layer="94"/>
<wire x1="1.27" y1="2.54" x2="2.54" y2="2.54" width="0.6096" layer="94"/>
<wire x1="1.27" y1="0" x2="2.54" y2="0" width="0.6096" layer="94"/>
<wire x1="-2.54" y1="5.08" x2="-2.54" y2="-2.54" width="0.4064" layer="94"/>
<wire x1="3.81" y1="-2.54" x2="3.81" y2="5.08" width="0.4064" layer="94"/>
<wire x1="-2.54" y1="5.08" x2="3.81" y2="5.08" width="0.4064" layer="94"/>
<text x="-2.54" y="-5.08" size="1.778" layer="96">&gt;VALUE</text>
<text x="-2.54" y="5.842" size="1.778" layer="95">&gt;NAME</text>
<pin name="1" x="7.62" y="0" visible="pad" length="middle" direction="pas" swaplevel="1" rot="R180"/>
<pin name="2" x="7.62" y="2.54" visible="pad" length="middle" direction="pas" swaplevel="1" rot="R180"/>
</symbol>
<symbol name="M04">
<wire x1="1.27" y1="-5.08" x2="-5.08" y2="-5.08" width="0.4064" layer="94"/>
<wire x1="-1.27" y1="2.54" x2="0" y2="2.54" width="0.6096" layer="94"/>
<wire x1="-1.27" y1="0" x2="0" y2="0" width="0.6096" layer="94"/>
<wire x1="-1.27" y1="-2.54" x2="0" y2="-2.54" width="0.6096" layer="94"/>
<wire x1="-5.08" y1="7.62" x2="-5.08" y2="-5.08" width="0.4064" layer="94"/>
<wire x1="1.27" y1="-5.08" x2="1.27" y2="7.62" width="0.4064" layer="94"/>
<wire x1="-5.08" y1="7.62" x2="1.27" y2="7.62" width="0.4064" layer="94"/>
<wire x1="-1.27" y1="5.08" x2="0" y2="5.08" width="0.6096" layer="94"/>
<text x="-5.08" y="-7.62" size="1.778" layer="96">&gt;VALUE</text>
<text x="-5.08" y="8.382" size="1.778" layer="95">&gt;NAME</text>
<pin name="1" x="5.08" y="-2.54" visible="pad" length="middle" direction="pas" swaplevel="1" rot="R180"/>
<pin name="2" x="5.08" y="0" visible="pad" length="middle" direction="pas" swaplevel="1" rot="R180"/>
<pin name="3" x="5.08" y="2.54" visible="pad" length="middle" direction="pas" swaplevel="1" rot="R180"/>
<pin name="4" x="5.08" y="5.08" visible="pad" length="middle" direction="pas" swaplevel="1" rot="R180"/>
</symbol>
</symbols>
<devicesets>
<deviceset name="STAND-OFF" prefix="JP">
<description>&lt;b&gt;Stand Off&lt;/b&gt;&lt;p&gt;
This is the mechanical footprint for a #4 phillips button head screw. Use the keepout ring to avoid running the screw head into surrounding components. SKU : PRT-00447</description>
<gates>
<gate name="G$1" symbol="STAND-OFF" x="0" y="0"/>
</gates>
<devices>
<device name="" package="STAND-OFF">
<technologies>
<technology name=""/>
</technologies>
</device>
<device name="TIGHT" package="STAND-OFF-TIGHT">
<technologies>
<technology name=""/>
</technologies>
</device>
</devices>
</deviceset>
<deviceset name="M02" prefix="JP" uservalue="yes">
<description>&lt;b&gt;Header 2&lt;/b&gt;
Standard 2-pin 0.1" header. Use with straight break away headers (SKU : PRT-00116), right angle break away headers (PRT-00553), swiss pins (PRT-00743), machine pins (PRT-00117), and female headers (PRT-00115). Molex polarized connector foot print use with SKU : PRT-08233 with associated crimp pins and housings.</description>
<gates>
<gate name="G$1" symbol="M02" x="-2.54" y="0"/>
</gates>
<devices>
<device name="PTH" package="1X02">
<connects>
<connect gate="G$1" pin="1" pad="1"/>
<connect gate="G$1" pin="2" pad="2"/>
</connects>
<technologies>
<technology name=""/>
</technologies>
</device>
<device name="POLAR" package="MOLEX-1X2">
<connects>
<connect gate="G$1" pin="1" pad="1"/>
<connect gate="G$1" pin="2" pad="2"/>
</connects>
<technologies>
<technology name=""/>
</technologies>
</device>
<device name="3.5MM" package="SCREWTERMINAL-3.5MM-2">
<connects>
<connect gate="G$1" pin="1" pad="1"/>
<connect gate="G$1" pin="2" pad="2"/>
</connects>
<technologies>
<technology name=""/>
</technologies>
</device>
<device name="-JST-2MM-SMT" package="JST-2-SMD">
<connects>
<connect gate="G$1" pin="1" pad="1"/>
<connect gate="G$1" pin="2" pad="2"/>
</connects>
<technologies>
<technology name=""/>
</technologies>
</device>
<device name="PTH2" package="1X02_BIG">
<connects>
<connect gate="G$1" pin="1" pad="P$1"/>
<connect gate="G$1" pin="2" pad="P$2"/>
</connects>
<technologies>
<technology name=""/>
</technologies>
</device>
<device name="4UCON-15767" package="JST-2-SMD-VERT">
<connects>
<connect gate="G$1" pin="1" pad="GND"/>
<connect gate="G$1" pin="2" pad="VCC"/>
</connects>
<technologies>
<technology name=""/>
</technologies>
</device>
<device name="ROCKER" package="R_SW_TH">
<connects>
<connect gate="G$1" pin="1" pad="P$3"/>
<connect gate="G$1" pin="2" pad="P$4"/>
</connects>
<technologies>
<technology name=""/>
</technologies>
</device>
<device name="5MM" package="SCREWTERMINAL-5MM-2">
<connects>
<connect gate="G$1" pin="1" pad="1"/>
<connect gate="G$1" pin="2" pad="2"/>
</connects>
<technologies>
<technology name=""/>
</technologies>
</device>
<device name="LOCK" package="1X02_LOCK">
<connects>
<connect gate="G$1" pin="1" pad="1"/>
<connect gate="G$1" pin="2" pad="2"/>
</connects>
<technologies>
<technology name=""/>
</technologies>
</device>
<device name="POLAR_LOCK" package="MOLEX-1X2_LOCK">
<connects>
<connect gate="G$1" pin="1" pad="1"/>
<connect gate="G$1" pin="2" pad="2"/>
</connects>
<technologies>
<technology name=""/>
</technologies>
</device>
<device name="LOCK_LONGPADS" package="1X02_LOCK_LONGPADS">
<connects>
<connect gate="G$1" pin="1" pad="1"/>
<connect gate="G$1" pin="2" pad="2"/>
</connects>
<technologies>
<technology name=""/>
</technologies>
</device>
<device name="3.5MM_LOCK" package="SCREWTERMINAL-3.5MM-2_LOCK">
<connects>
<connect gate="G$1" pin="1" pad="1"/>
<connect gate="G$1" pin="2" pad="2"/>
</connects>
<technologies>
<technology name=""/>
</technologies>
</device>
<device name="PTH3" package="1X02_LONGPADS">
<connects>
<connect gate="G$1" pin="1" pad="1"/>
<connect gate="G$1" pin="2" pad="2"/>
</connects>
<technologies>
<technology name=""/>
</technologies>
</device>
<device name="1X02_NO_SILK" package="1X02_NO_SILK">
<connects>
<connect gate="G$1" pin="1" pad="1"/>
<connect gate="G$1" pin="2" pad="2"/>
</connects>
<technologies>
<technology name=""/>
</technologies>
</device>
<device name="JST-PTH-2" package="JST-2-PTH">
<connects>
<connect gate="G$1" pin="1" pad="1"/>
<connect gate="G$1" pin="2" pad="2"/>
</connects>
<technologies>
<technology name=""/>
</technologies>
</device>
<device name="PTH4" package="1X02_XTRA_BIG">
<connects>
<connect gate="G$1" pin="1" pad="1"/>
<connect gate="G$1" pin="2" pad="2"/>
</connects>
<technologies>
<technology name=""/>
</technologies>
</device>
<device name="POGO_PIN_HOLES_ONLY" package="1X02_PP_HOLES_ONLY">
<connects>
<connect gate="G$1" pin="1" pad="1"/>
<connect gate="G$1" pin="2" pad="2"/>
</connects>
<technologies>
<technology name=""/>
</technologies>
</device>
<device name="3.5MM-NO_SILK" package="SCREWTERMINAL-3.5MM-2-NS">
<connects>
<connect gate="G$1" pin="1" pad="1"/>
<connect gate="G$1" pin="2" pad="2"/>
</connects>
<technologies>
<technology name=""/>
</technologies>
</device>
<device name="-JST-2-PTH-NO_SILK" package="JST-2-PTH-NS">
<connects>
<connect gate="G$1" pin="1" pad="1"/>
<connect gate="G$1" pin="2" pad="2"/>
</connects>
<technologies>
<technology name=""/>
</technologies>
</device>
<device name="JST-PTH-2-KIT" package="JST-2-PTH-KIT">
<connects>
<connect gate="G$1" pin="1" pad="1"/>
<connect gate="G$1" pin="2" pad="2"/>
</connects>
<technologies>
<technology name=""/>
</technologies>
</device>
<device name="SPRING-2.54-RA" package="SPRINGTERMINAL-2.54MM-2">
<connects>
<connect gate="G$1" pin="1" pad="1"/>
<connect gate="G$1" pin="2" pad="2"/>
</connects>
<technologies>
<technology name=""/>
</technologies>
</device>
</devices>
</deviceset>
<deviceset name="M04" prefix="JP" uservalue="yes">
<description>&lt;b&gt;Header 4&lt;/b&gt;
Standard 4-pin 0.1" header. Use with straight break away headers (SKU : PRT-00116), right angle break away headers (PRT-00553), swiss pins (PRT-00743), machine pins (PRT-00117), and female headers (PRT-00115). Molex polarized connector foot print use with SKU : PRT-08231 with associated crimp pins and housings. 1MM SMD Version SKU: PRT-10208</description>
<gates>
<gate name="G$1" symbol="M04" x="-2.54" y="0"/>
</gates>
<devices>
<device name="PTH" package="1X04">
<connects>
<connect gate="G$1" pin="1" pad="1"/>
<connect gate="G$1" pin="2" pad="2"/>
<connect gate="G$1" pin="3" pad="3"/>
<connect gate="G$1" pin="4" pad="4"/>
</connects>
<technologies>
<technology name=""/>
</technologies>
</device>
<device name="POLAR" package="MOLEX-1X4">
<connects>
<connect gate="G$1" pin="1" pad="1"/>
<connect gate="G$1" pin="2" pad="2"/>
<connect gate="G$1" pin="3" pad="3"/>
<connect gate="G$1" pin="4" pad="4"/>
</connects>
<technologies>
<technology name=""/>
</technologies>
</device>
<device name="SCREW" package="SCREWTERMINAL-3.5MM-4">
<connects>
<connect gate="G$1" pin="1" pad="1"/>
<connect gate="G$1" pin="2" pad="2"/>
<connect gate="G$1" pin="3" pad="3"/>
<connect gate="G$1" pin="4" pad="4"/>
</connects>
<technologies>
<technology name=""/>
</technologies>
</device>
<device name="1.27MM" package="1X04-1.27MM">
<connects>
<connect gate="G$1" pin="1" pad="1"/>
<connect gate="G$1" pin="2" pad="2"/>
<connect gate="G$1" pin="3" pad="3"/>
<connect gate="G$1" pin="4" pad="4"/>
</connects>
<technologies>
<technology name=""/>
</technologies>
</device>
<device name="LOCK" package="1X04_LOCK">
<connects>
<connect gate="G$1" pin="1" pad="1"/>
<connect gate="G$1" pin="2" pad="2"/>
<connect gate="G$1" pin="3" pad="3"/>
<connect gate="G$1" pin="4" pad="4"/>
</connects>
<technologies>
<technology name=""/>
</technologies>
</device>
<device name="LOCK_LONGPADS" package="1X04_LOCK_LONGPADS">
<connects>
<connect gate="G$1" pin="1" pad="1"/>
<connect gate="G$1" pin="2" pad="2"/>
<connect gate="G$1" pin="3" pad="3"/>
<connect gate="G$1" pin="4" pad="4"/>
</connects>
<technologies>
<technology name=""/>
</technologies>
</device>
<device name="POLAR_LOCK" package="MOLEX-1X4_LOCK">
<connects>
<connect gate="G$1" pin="1" pad="1"/>
<connect gate="G$1" pin="2" pad="2"/>
<connect gate="G$1" pin="3" pad="3"/>
<connect gate="G$1" pin="4" pad="4"/>
</connects>
<technologies>
<technology name=""/>
</technologies>
</device>
<device name="SMD" package="1X04-SMD">
<connects>
<connect gate="G$1" pin="1" pad="1"/>
<connect gate="G$1" pin="2" pad="2"/>
<connect gate="G$1" pin="3" pad="3"/>
<connect gate="G$1" pin="4" pad="4"/>
</connects>
<technologies>
<technology name=""/>
</technologies>
</device>
<device name="LONGPADS" package="1X04_LONGPADS">
<connects>
<connect gate="G$1" pin="1" pad="1"/>
<connect gate="G$1" pin="2" pad="2"/>
<connect gate="G$1" pin="3" pad="3"/>
<connect gate="G$1" pin="4" pad="4"/>
</connects>
<technologies>
<technology name=""/>
</technologies>
</device>
<device name="1X04_NO_SILK" package="1X04_NO_SILK">
<connects>
<connect gate="G$1" pin="1" pad="1"/>
<connect gate="G$1" pin="2" pad="2"/>
<connect gate="G$1" pin="3" pad="3"/>
<connect gate="G$1" pin="4" pad="4"/>
</connects>
<technologies>
<technology name=""/>
</technologies>
</device>
<device name="JST-PTH" package="JST-4-PTH">
<connects>
<connect gate="G$1" pin="1" pad="1"/>
<connect gate="G$1" pin="2" pad="2"/>
<connect gate="G$1" pin="3" pad="3"/>
<connect gate="G$1" pin="4" pad="4"/>
</connects>
<technologies>
<technology name=""/>
</technologies>
</device>
<device name="SCREW_LOCK" package="SCREWTERMINAL-3.5MM-4_LOCK">
<connects>
<connect gate="G$1" pin="1" pad="1"/>
<connect gate="G$1" pin="2" pad="2"/>
<connect gate="G$1" pin="3" pad="3"/>
<connect gate="G$1" pin="4" pad="4"/>
</connects>
<technologies>
<technology name=""/>
</technologies>
</device>
<device name="SMD2" package="1X04-1MM-RA">
<connects>
<connect gate="G$1" pin="1" pad="1"/>
<connect gate="G$1" pin="2" pad="2"/>
<connect gate="G$1" pin="3" pad="3"/>
<connect gate="G$1" pin="4" pad="4"/>
</connects>
<technologies>
<technology name=""/>
</technologies>
</device>
</devices>
</deviceset>
</devicesets>
</library>
</libraries>
<attributes>
</attributes>
<variantdefs>
</variantdefs>
<classes>
<class number="0" name="default" width="0" drill="0">
</class>
</classes>
<parts>
<part name="SL1" library="SparkFun" deviceset="M02" device="5MM"/>
<part name="SL2" library="SparkFun" deviceset="M02" device="5MM"/>
<part name="SL3" library="SparkFun" deviceset="M02" device="5MM"/>
<part name="SL4" library="SparkFun" deviceset="M02" device="5MM"/>
<part name="FRAME1" library="frames" deviceset="LETTER_L" device=""/>
<part name="JP2" library="SparkFun" deviceset="STAND-OFF" device=""/>
<part name="JP3" library="SparkFun" deviceset="STAND-OFF" device=""/>
<part name="JP1" library="SparkFun" deviceset="M04" device="PTH"/>
<part name="JP4" library="SparkFun" deviceset="M04" device="PTH"/>
</parts>
<sheets>
<sheet>
<plain>
</plain>
<instances>
<instance part="SL1" gate="G$1" x="15.24" y="66.04" rot="MR180"/>
<instance part="SL2" gate="G$1" x="40.64" y="66.04" rot="R180"/>
<instance part="SL3" gate="G$1" x="15.24" y="48.26" rot="MR180"/>
<instance part="SL4" gate="G$1" x="40.64" y="48.26" rot="R180"/>
<instance part="FRAME1" gate="G$1" x="0" y="0"/>
<instance part="FRAME1" gate="G$2" x="147.32" y="0"/>
<instance part="JP2" gate="G$1" x="154.94" y="33.02"/>
<instance part="JP3" gate="G$1" x="154.94" y="27.94"/>
<instance part="JP1" gate="G$1" x="5.08" y="55.88"/>
<instance part="JP4" gate="G$1" x="58.42" y="55.88" rot="MR0"/>
</instances>
<busses>
</busses>
<nets>
<net name="N$2" class="0">
<segment>
<pinref part="SL3" gate="G$1" pin="1"/>
<wire x1="22.86" y1="48.26" x2="27.94" y2="48.26" width="0.1524" layer="91"/>
<wire x1="27.94" y1="48.26" x2="27.94" y2="45.72" width="0.1524" layer="91"/>
<pinref part="SL4" gate="G$1" pin="2"/>
<wire x1="27.94" y1="45.72" x2="33.02" y2="45.72" width="0.1524" layer="91"/>
<pinref part="JP1" gate="G$1" pin="2"/>
<wire x1="10.16" y1="55.88" x2="12.7" y2="55.88" width="0.1524" layer="91"/>
<wire x1="12.7" y1="55.88" x2="12.7" y2="48.26" width="0.1524" layer="91"/>
<wire x1="12.7" y1="48.26" x2="22.86" y2="48.26" width="0.1524" layer="91"/>
<junction x="22.86" y="48.26"/>
<pinref part="JP4" gate="G$1" pin="2"/>
<wire x1="53.34" y1="55.88" x2="48.26" y2="55.88" width="0.1524" layer="91"/>
<wire x1="48.26" y1="55.88" x2="48.26" y2="45.72" width="0.1524" layer="91"/>
<wire x1="48.26" y1="45.72" x2="33.02" y2="45.72" width="0.1524" layer="91"/>
<junction x="33.02" y="45.72"/>
</segment>
</net>
<net name="N$4" class="0">
<segment>
<pinref part="SL1" gate="G$1" pin="2"/>
<wire x1="22.86" y1="63.5" x2="25.4" y2="63.5" width="0.1524" layer="91"/>
<wire x1="25.4" y1="63.5" x2="25.4" y2="55.88" width="0.1524" layer="91"/>
<wire x1="25.4" y1="55.88" x2="45.72" y2="55.88" width="0.1524" layer="91"/>
<wire x1="45.72" y1="55.88" x2="45.72" y2="60.96" width="0.1524" layer="91"/>
<wire x1="45.72" y1="60.96" x2="45.72" y2="71.12" width="0.1524" layer="91"/>
<wire x1="45.72" y1="71.12" x2="30.48" y2="71.12" width="0.1524" layer="91"/>
<wire x1="30.48" y1="71.12" x2="30.48" y2="66.04" width="0.1524" layer="91"/>
<pinref part="SL2" gate="G$1" pin="1"/>
<wire x1="30.48" y1="66.04" x2="33.02" y2="66.04" width="0.1524" layer="91"/>
<pinref part="JP4" gate="G$1" pin="4"/>
<wire x1="53.34" y1="60.96" x2="45.72" y2="60.96" width="0.1524" layer="91"/>
<junction x="45.72" y="60.96"/>
<pinref part="JP1" gate="G$1" pin="4"/>
<wire x1="10.16" y1="60.96" x2="10.16" y2="63.5" width="0.1524" layer="91"/>
<wire x1="10.16" y1="63.5" x2="22.86" y2="63.5" width="0.1524" layer="91"/>
<junction x="22.86" y="63.5"/>
</segment>
</net>
<net name="N$6" class="0">
<segment>
<pinref part="JP4" gate="G$1" pin="1"/>
<wire x1="53.34" y1="53.34" x2="53.34" y2="40.64" width="0.1524" layer="91"/>
<pinref part="SL3" gate="G$1" pin="2"/>
<wire x1="22.86" y1="45.72" x2="25.4" y2="45.72" width="0.1524" layer="91"/>
<wire x1="25.4" y1="45.72" x2="25.4" y2="38.1" width="0.1524" layer="91"/>
<wire x1="25.4" y1="38.1" x2="45.72" y2="38.1" width="0.1524" layer="91"/>
<wire x1="45.72" y1="38.1" x2="45.72" y2="40.64" width="0.1524" layer="91"/>
<wire x1="45.72" y1="40.64" x2="45.72" y2="53.34" width="0.1524" layer="91"/>
<wire x1="45.72" y1="53.34" x2="30.48" y2="53.34" width="0.1524" layer="91"/>
<wire x1="30.48" y1="53.34" x2="30.48" y2="48.26" width="0.1524" layer="91"/>
<wire x1="30.48" y1="48.26" x2="33.02" y2="48.26" width="0.1524" layer="91"/>
<pinref part="SL4" gate="G$1" pin="1"/>
<pinref part="JP1" gate="G$1" pin="1"/>
<wire x1="10.16" y1="53.34" x2="10.16" y2="45.72" width="0.1524" layer="91"/>
<wire x1="10.16" y1="45.72" x2="22.86" y2="45.72" width="0.1524" layer="91"/>
<junction x="22.86" y="45.72"/>
<wire x1="53.34" y1="40.64" x2="45.72" y2="40.64" width="0.1524" layer="91"/>
<junction x="45.72" y="40.64"/>
</segment>
</net>
<net name="N$1" class="0">
<segment>
<pinref part="JP1" gate="G$1" pin="3"/>
<wire x1="10.16" y1="58.42" x2="15.24" y2="58.42" width="0.1524" layer="91"/>
<wire x1="15.24" y1="58.42" x2="15.24" y2="66.04" width="0.1524" layer="91"/>
<pinref part="SL1" gate="G$1" pin="1"/>
<wire x1="22.86" y1="66.04" x2="27.94" y2="66.04" width="0.1524" layer="91"/>
<wire x1="27.94" y1="66.04" x2="27.94" y2="63.5" width="0.1524" layer="91"/>
<pinref part="SL2" gate="G$1" pin="2"/>
<wire x1="27.94" y1="63.5" x2="33.02" y2="63.5" width="0.1524" layer="91"/>
<pinref part="JP4" gate="G$1" pin="3"/>
<wire x1="53.34" y1="58.42" x2="48.26" y2="58.42" width="0.1524" layer="91"/>
<wire x1="48.26" y1="58.42" x2="48.26" y2="63.5" width="0.1524" layer="91"/>
<wire x1="48.26" y1="63.5" x2="33.02" y2="63.5" width="0.1524" layer="91"/>
<junction x="33.02" y="63.5"/>
<wire x1="15.24" y1="66.04" x2="22.86" y2="66.04" width="0.1524" layer="91"/>
<junction x="22.86" y="66.04"/>
</segment>
</net>
</nets>
</sheet>
</sheets>
</schematic>
</drawing>
</eagle>
